[
    {
        "id": "507280dfe4b09822b9acb425",
        "name": "Bistro du Vin",
        "lat": 22.28336153979622,
        "lng": 114.12648445330026,
        "address": [
            "1D Davis St",
            "香港"
        ],
        "city": "坚尼地城",
        "state": null,
        "categories_id": "4bf58dd8d48988d10c941735",
        "categories_name": "French Restaurant"
    },
    {
        "id": "5569bc1f498e7a84d27f2001",
        "name": "Comptoir",
        "lat": 22.28120934043025,
        "lng": 114.1269745209255,
        "address": [
            "42 Forbes St",
            "香港"
        ],
        "city": "香港",
        "state": null,
        "categories_id": "4bf58dd8d48988d10c941735",
        "categories_name": "French Restaurant"
    },
    {
        "id": "513c89a0e4b0cc27a99c3b04",
        "name": "Metropolitain",
        "lat": 22.285084,
        "lng": 114.142062,
        "address": [
            "46 High St",
            "香港"
        ],
        "city": "Sai Ying Pun",
        "state": null,
        "categories_id": "4bf58dd8d48988d10c941735",
        "categories_name": "French Restaurant"
    },
    {
        "id": "5244234511d2f84bb4fd2c86",
        "name": "Sup1",
        "lat": 22.28525126940488,
        "lng": 114.14094395833425,
        "address": [
            "Shop A & B, 80 High St",
            "Hong Kong",
            "香港"
        ],
        "city": "Sai Ying Pun",
        "state": "Hong Kong",
        "categories_id": "4bf58dd8d48988d10c941735",
        "categories_name": "French Restaurant"
    },
    {
        "id": "5f81a7f8f44034537471d5a4",
        "name": "Bouillon",
        "lat": 22.285192,
        "lng": 114.147967,
        "address": [
            "6 Pound Lane",
            "香港"
        ],
        "city": "Sheung Wan",
        "state": null,
        "categories_id": "4bf58dd8d48988d10c941735",
        "categories_name": "French Restaurant"
    },
    {
        "id": "54b69fe9498e24070c12b0d5",
        "name": "Ethos",
        "lat": 22.284314,
        "lng": 114.136417,
        "address": [
            "93, 97, 99 Hill Rd",
            "香港"
        ],
        "city": "Sai Ying Pun",
        "state": null,
        "categories_id": "4bf58dd8d48988d16d941735",
        "categories_name": "Café"
    },
    {
        "id": "526fa78011d209b07e5e91bf",
        "name": "La Vache!",
        "lat": 22.28266096638407,
        "lng": 114.15274851968225,
        "address": [
            "48 Peel St",
            "中西區",
            "香港"
        ],
        "city": "中環",
        "state": "中西區",
        "categories_id": "4bf58dd8d48988d10c941735",
        "categories_name": "French Restaurant"
    },
    {
        "id": "5a3484e6db1d8178a09c9b46",
        "name": "Feather & Bone",
        "lat": 22.28758,
        "lng": 114.138895,
        "address": [
            "Shop 1, G/F, Bohemian House, 321 Des Voeux Rd W",
            "香港"
        ],
        "city": "香港",
        "state": null,
        "categories_id": "4bf58dd8d48988d10c941735",
        "categories_name": "French Restaurant"
    },
    {
        "id": "4b1f2963f964a5208c2424e3",
        "name": "Pastis Bistro Francais",
        "lat": 22.281554421059372,
        "lng": 114.15447488645262,
        "address": [
            "65 Wyndham St",
            "中西區",
            "香港"
        ],
        "city": "中環",
        "state": "中西區",
        "categories_id": "4bf58dd8d48988d10c941735",
        "categories_name": "French Restaurant"
    },
    {
        "id": "5ae71e4c6fd626002c678600",
        "name": "La Petite Maison",
        "lat": 22.28292183451901,
        "lng": 114.15536718434302,
        "address": [
            "1/F, H Queen’s, 80 Queen’s Road Central, Central, Hong Kong",
            "香港"
        ],
        "city": "香港",
        "state": null,
        "categories_id": "4bf58dd8d48988d10c941735",
        "categories_name": "French Restaurant"
    },
    {
        "id": "5644840f498e2c069791ec6f",
        "name": "VEA Restaurant and Bar",
        "lat": 22.28489,
        "lng": 114.152953,
        "address": [
            "30/F 198 Wellington St",
            "中西區",
            "香港"
        ],
        "city": "中環",
        "state": "中西區",
        "categories_id": "4bf58dd8d48988d10c941735",
        "categories_name": "French Restaurant"
    },
    {
        "id": "4d465191e198721e9441ce8b",
        "name": "Bouchon Bistro Français",
        "lat": 22.281446511016103,
        "lng": 114.15263376741608,
        "address": [
            "49 Elgin St",
            "中西區",
            "香港"
        ],
        "city": "中環",
        "state": "中西區",
        "categories_id": "4bf58dd8d48988d10c941735",
        "categories_name": "French Restaurant"
    },
    {
        "id": "505198e8e4b09819b925f00a",
        "name": "La Cabane Wine Bistro",
        "lat": 22.28296,
        "lng": 114.152766,
        "address": [
            "62 Hollywood Rd",
            "中西區",
            "香港"
        ],
        "city": "中環",
        "state": "中西區",
        "categories_id": "4bf58dd8d48988d123941735",
        "categories_name": "Wine Bar"
    },
    {
        "id": "56c7e495498e815bef232ff7",
        "name": "Belon",
        "lat": 22.281727295355918,
        "lng": 114.15246491843007,
        "address": [
            "41 Elgin Street",
            "Hong Kong Island",
            "香港"
        ],
        "city": "Hong Kong",
        "state": "Hong Kong Island",
        "categories_id": "4bf58dd8d48988d10c941735",
        "categories_name": "French Restaurant"
    },
    {
        "id": "4bc6f5d76501c9b6ec843d29",
        "name": "Fridge",
        "lat": 22.28263837695447,
        "lng": 114.15267584772702,
        "address": [
            "UG/F, 48 Peel St",
            "中西區",
            "香港"
        ],
        "city": "中環",
        "state": "中西區",
        "categories_id": "4bf58dd8d48988d10c941735",
        "categories_name": "French Restaurant"
    },
    {
        "id": "4b0588d0f964a52041db22e3",
        "name": "Amber",
        "lat": 22.2806128,
        "lng": 114.1577249,
        "address": [
            "15 Queen’s Road Central, Central",
            "中西區",
            "香港"
        ],
        "city": "中環",
        "state": "中西區",
        "categories_id": "4bf58dd8d48988d10c941735",
        "categories_name": "French Restaurant"
    },
    {
        "id": "5cff2343f8cbd40039cebb96",
        "name": "Louise",
        "lat": 22.283444,
        "lng": 114.1521,
        "address": [
            "JPC, PMQ, 35 Aberdeen St",
            "香港"
        ],
        "city": "香港",
        "state": null,
        "categories_id": "4bf58dd8d48988d10c941735",
        "categories_name": "French Restaurant"
    },
    {
        "id": "4bd98102e914a59341b056fa",
        "name": "Bonheur",
        "lat": 22.285611866731212,
        "lng": 114.15222675571921,
        "address": [
            "6/F, The Pemberton, 22-26 Bonham Strand",
            "香港"
        ],
        "city": "Sheung Wan",
        "state": null,
        "categories_id": "4bf58dd8d48988d10c941735",
        "categories_name": "French Restaurant"
    },
    {
        "id": "4d1d7f662eb1f04da541d7c1",
        "name": "Fa Zu Jie (法租界)",
        "lat": 22.281005750838595,
        "lng": 114.15566452179041,
        "address": [
            "1/F, 20 D'Aguilar St",
            "香港"
        ],
        "city": "中区",
        "state": null,
        "categories_id": "4bf58dd8d48988d10c941735",
        "categories_name": "French Restaurant"
    },
    {
        "id": "599fe6fbad910e6c3434dc41",
        "name": "Ecriture",
        "lat": 22.283094802374098,
        "lng": 114.15527004001886,
        "address": [
            "26/F, H Queen’s, 80 Queen’s Road Central, Central, Hong Kong",
            "中西區",
            "香港"
        ],
        "city": "中環",
        "state": "中西區",
        "categories_id": "4bf58dd8d48988d10c941735",
        "categories_name": "French Restaurant"
    },
    {
        "id": "546ebbcc498ef31e59af1a31",
        "name": "Arcane",
        "lat": 22.280632,
        "lng": 114.156831,
        "address": [
            "18 On LAN Street 3/f",
            "香港"
        ],
        "city": "香港",
        "state": null,
        "categories_id": "4bf58dd8d48988d10c941735",
        "categories_name": "French Restaurant"
    },
    {
        "id": "5856299876b8b203e035fbfd",
        "name": "Brew Bros",
        "lat": 22.284856764674174,
        "lng": 114.13583900151042,
        "address": [
            "G/F, 1 Po Tuck St",
            "香港"
        ],
        "city": "香港",
        "state": null,
        "categories_id": "4bf58dd8d48988d1e0931735",
        "categories_name": "Coffee Shop"
    },
    {
        "id": "4b1947f3f964a5206dda23e3",
        "name": "L'Atelier de Joël Robuchon",
        "lat": 22.281734278818593,
        "lng": 114.15814044318988,
        "address": [
            "Shop 401, 4/F, The Landmark, 16 Des Voeux Rd C",
            "Hong Kong Island",
            "香港"
        ],
        "city": "Hong Kong",
        "state": "Hong Kong Island",
        "categories_id": "4bf58dd8d48988d10c941735",
        "categories_name": "French Restaurant"
    },
    {
        "id": "5ad1b9bf3ba7673e61b23336",
        "name": "Arbor",
        "lat": 22.283327,
        "lng": 114.156316,
        "address": [
            "25/F, H Queen’s, 80 Queen’s Rd C",
            "香港"
        ],
        "city": "中区",
        "state": null,
        "categories_id": "4bf58dd8d48988d10c941735",
        "categories_name": "French Restaurant"
    },
    {
        "id": "514ed30ee4b03aaaf66cd696",
        "name": "Petite Oyster",
        "lat": 22.284937986645105,
        "lng": 114.14872114848096,
        "address": [
            "G/F, 44 Sai St",
            "香港"
        ],
        "city": "Sheung Wan",
        "state": null,
        "categories_id": "4bf58dd8d48988d10c941735",
        "categories_name": "French Restaurant"
    },
    {
        "id": "4b0588d0f964a52046db22e3",
        "name": "Caprice",
        "lat": 22.287157249649393,
        "lng": 114.15697410103273,
        "address": [
            "6/F, Four Seasons Hotel Hong Kong, 8 Finance St",
            "中西區",
            "香港"
        ],
        "city": "中環",
        "state": "中西區",
        "categories_id": "4bf58dd8d48988d10c941735",
        "categories_name": "French Restaurant"
    },
    {
        "id": "4b9e230ff964a520f6cc36e3",
        "name": "ABC Kitchen",
        "lat": 22.287208580873934,
        "lng": 114.14734972589005,
        "address": [
            "Shop CF7, Queen Street Cooked Food Market, 1 Queen St",
            "香港"
        ],
        "city": "Sheung Wan",
        "state": null,
        "categories_id": "4bf58dd8d48988d10c941735",
        "categories_name": "French Restaurant"
    },
    {
        "id": "4dba4e6393a080554833cd80",
        "name": "La Parole",
        "lat": 22.285612849790688,
        "lng": 114.15224614614571,
        "address": [
            "3/F, The Pemberton, 22-26 Bonham Strand",
            "香港"
        ],
        "city": "Sheung Wan",
        "state": null,
        "categories_id": "4bf58dd8d48988d10c941735",
        "categories_name": "French Restaurant"
    },
    {
        "id": "543be240498e65a9a11ce06d",
        "name": "Neighborhood",
        "lat": 22.28334577070582,
        "lng": 114.15296577374274,
        "address": [
            "61-63 Hollywood Rd (btwn Man Hing Ln & Peel St)",
            "香港"
        ],
        "city": "Sheung Wan",
        "state": null,
        "categories_id": "4bf58dd8d48988d10c941735",
        "categories_name": "French Restaurant"
    },
    {
        "id": "506ee1e3e4b03206daff1123",
        "name": "Les Fils à Maman",
        "lat": 22.283511963529214,
        "lng": 114.15294944593765,
        "address": [
            "LG/F, 75 Hollywood Rd",
            "中西區",
            "香港"
        ],
        "city": "中環",
        "state": "中西區",
        "categories_id": "4bf58dd8d48988d10c941735",
        "categories_name": "French Restaurant"
    },
    {
        "id": "4b191081f964a52094d723e3",
        "name": "On Lot 10",
        "lat": 22.28423407581551,
        "lng": 114.15240708918967,
        "address": [
            "34 Gough St",
            "中西區",
            "香港"
        ],
        "city": "中環",
        "state": "中西區",
        "categories_id": "4bf58dd8d48988d10c941735",
        "categories_name": "French Restaurant"
    },
    {
        "id": "548c6373498e6b07088ca0f8",
        "name": "ON Dining Kitchen & Lounge",
        "lat": 22.281027114323063,
        "lng": 114.15693556143992,
        "address": [
            "29/F, 18 On Lan St",
            "中西區",
            "香港"
        ],
        "city": "中環",
        "state": "中西區",
        "categories_id": "4bf58dd8d48988d116941735",
        "categories_name": "Bar"
    },
    {
        "id": "555da3cf498eec90bfb50691",
        "name": "Ta Vie",
        "lat": 22.28301765848473,
        "lng": 114.15542092462275,
        "address": [
            "2/F, The Pottinger, 74 Queens Rd C",
            "中西區",
            "香港"
        ],
        "city": "中環",
        "state": "中西區",
        "categories_id": "4bf58dd8d48988d10c941735",
        "categories_name": "French Restaurant"
    },
    {
        "id": "56077b78498e40df12baa041",
        "name": "Cupping Room",
        "lat": 22.28308,
        "lng": 114.154559,
        "address": [
            "18 Cochrane St",
            "香港"
        ],
        "city": "香港",
        "state": null,
        "categories_id": "4bf58dd8d48988d1e0931735",
        "categories_name": "Coffee Shop"
    },
    {
        "id": "51e53b4a498e1027427ac542",
        "name": "C'est La Vie",
        "lat": 22.28107537726405,
        "lng": 114.1554601549585,
        "address": [
            "G/F, 76 Wellington St",
            "中西區",
            "香港"
        ],
        "city": "中環",
        "state": "中西區",
        "categories_id": "4bf58dd8d48988d10c941735",
        "categories_name": "French Restaurant"
    },
    {
        "id": "4dd24bc6d4c0febf0fe19ea4",
        "name": "Petrus",
        "lat": 22.276920180203547,
        "lng": 114.1642677783966,
        "address": [
            "56/F, Island Shangri-La Hong Kong, Pacific Place, Supreme Court Rd",
            "中西區",
            "香港"
        ],
        "city": "中環",
        "state": "中西區",
        "categories_id": "4bf58dd8d48988d10c941735",
        "categories_name": "French Restaurant"
    },
    {
        "id": "4b0588d7f964a520a8dc22e3",
        "name": "Brasserie on the Eighth",
        "lat": 22.27702652438349,
        "lng": 114.16485464295319,
        "address": [
            "8/F, Conrad Hong Kong, 88 Queensway",
            "灣仔區",
            "香港"
        ],
        "city": "灣仔",
        "state": "灣仔區",
        "categories_id": "4bf58dd8d48988d10c941735",
        "categories_name": "French Restaurant"
    },
    {
        "id": "529b3100498ef27b34483538",
        "name": "Man Mo Café",
        "lat": 22.285019019180645,
        "lng": 114.1494934649737,
        "address": [
            "40 Upper Lascar Row, Central",
            "香港"
        ],
        "city": "Sheung Wan",
        "state": null,
        "categories_id": "4bf58dd8d48988d16d941735",
        "categories_name": "Café"
    },
    {
        "id": "52a6fbc611d272b1f30330fe",
        "name": "238 Restaurant",
        "lat": 22.285841,
        "lng": 114.147366,
        "address": [
            "G/F, 238 Hollywood Rd",
            "香港"
        ],
        "city": "香港",
        "state": null,
        "categories_id": "4bf58dd8d48988d10c941735",
        "categories_name": "French Restaurant"
    },
    {
        "id": "4b0588d8f964a520e9dc22e3",
        "name": "Pierre",
        "lat": 22.281997,
        "lng": 114.159353,
        "address": [
            "25/F, Mandarin Oriental Hong Kong, 5 Connaught Road Central, Central",
            "中西區",
            "香港"
        ],
        "city": "中環",
        "state": "中西區",
        "categories_id": "4bf58dd8d48988d10c941735",
        "categories_name": "French Restaurant"
    },
    {
        "id": "5e0deb6d892d58000742aeec",
        "name": "Bistronomique",
        "lat": 22.283688,
        "lng": 114.126829,
        "address": [
            "1 Davis Street",
            "香港"
        ],
        "city": "Sai Wan",
        "state": null,
        "categories_id": "4bf58dd8d48988d10c941735",
        "categories_name": "French Restaurant"
    },
    {
        "id": "52e4b2f911d22d84ed263004",
        "name": "Collection de Vignobles",
        "lat": 22.281439141679034,
        "lng": 114.12647944982659,
        "address": [
            "71 Cadogan Street",
            "香港"
        ],
        "city": "坚尼地城",
        "state": null,
        "categories_id": "4bf58dd8d48988d10c941735",
        "categories_name": "French Restaurant"
    },
    {
        "id": "5992dad6aa6c95730e7b199c",
        "name": "Terroir Parisien",
        "lat": 22.281202607832768,
        "lng": 114.15882000974054,
        "address": [
            "Shop M20-M24, M/F, Prince's Building (10 Chater Road, Central)",
            "香港"
        ],
        "city": "香港",
        "state": null,
        "categories_id": "4bf58dd8d48988d10c941735",
        "categories_name": "French Restaurant"
    },
    {
        "id": "4d1b188c5acb721ea7770bb2",
        "name": "La Cabane a Vin",
        "lat": 22.28385378457264,
        "lng": 114.15223186164249,
        "address": [
            "B/F., 97 Hollywood Rd",
            "中西區",
            "香港"
        ],
        "city": "中環",
        "state": "中西區",
        "categories_id": "4bf58dd8d48988d119951735",
        "categories_name": "Wine Shop"
    },
    {
        "id": "51f4fbb6498e4a9a19d54dd2",
        "name": "K-Town Bar and Grill",
        "lat": 22.281184071653225,
        "lng": 114.12698342696137,
        "address": [
            "Shop G7-G8, G/F, Sincere Western House, 44-46 Forbes St",
            "香港"
        ],
        "city": "坚尼地城",
        "state": null,
        "categories_id": "4bf58dd8d48988d155941735",
        "categories_name": "Gastropub"
    },
    {
        "id": "51d3e2a8498ed5547cf0c07b",
        "name": "La Rôtisserie",
        "lat": 22.285708425662826,
        "lng": 114.14203842038943,
        "address": [
            "71 Third St (Btwn Western St. & Centre St.)",
            "香港"
        ],
        "city": "Sai Ying Pun",
        "state": null,
        "categories_id": "4bf58dd8d48988d10c941735",
        "categories_name": "French Restaurant"
    },
    {
        "id": "51df9977498ef3df41d624cb",
        "name": "Locofama",
        "lat": 22.285903772731178,
        "lng": 114.14037825599512,
        "address": [
            "9-13 Fuk Sau Ln",
            "Hong Kong Island",
            "香港"
        ],
        "city": "Sai Ying Pun",
        "state": "Hong Kong Island",
        "categories_id": "4bf58dd8d48988d16d941735",
        "categories_name": "Café"
    },
    {
        "id": "54cddca3498ee7851d25af36",
        "name": "Table",
        "lat": 22.28563362437341,
        "lng": 114.15215361475725,
        "address": [
            "8/F, The Pemberton, 22-26 Bonham Strand East (at Man Wah Ln)",
            "香港"
        ],
        "city": "香港",
        "state": null,
        "categories_id": "52e81612bcbc57f1066b79f9",
        "categories_name": "Modern European Restaurant"
    },
    {
        "id": "583fc2c71b36d478b3a5920f",
        "name": "12,000 FRANCS",
        "lat": 22.28167266947307,
        "lng": 114.15247502729514,
        "address": [
            "G/F, Elgin Building, 43 A Elgin St",
            "Hong Kong Island",
            "香港"
        ],
        "city": "Central",
        "state": "Hong Kong Island",
        "categories_id": "4bf58dd8d48988d10c941735",
        "categories_name": "French Restaurant"
    },
    {
        "id": "4ef5fb7593ad7cf2e93dd7e9",
        "name": "Le Tambour",
        "lat": 22.282657753959388,
        "lng": 114.15268509535952,
        "address": [
            "52A Peel St",
            "中西區",
            "香港"
        ],
        "city": "中環",
        "state": "中西區",
        "categories_id": "4bf58dd8d48988d123941735",
        "categories_name": "Wine Bar"
    },
    {
        "id": "56c6ea5fcd1040365d3a6881",
        "name": "Le Quinze Vins",
        "lat": 22.283620304075235,
        "lng": 114.15333219884772,
        "address": [
            "Gage St",
            "中西區",
            "香港"
        ],
        "city": "中環",
        "state": "中西區",
        "categories_id": "4bf58dd8d48988d123941735",
        "categories_name": "Wine Bar"
    },
    {
        "id": "5ef33ddb681f750008607b02",
        "name": "Bâtard",
        "lat": 22.287977,
        "lng": 114.139236,
        "address": [
            "165-16 Connaught Road",
            "香港"
        ],
        "city": "Sai Wan",
        "state": null,
        "categories_id": "4bf58dd8d48988d10c941735",
        "categories_name": "French Restaurant"
    },
    {
        "id": "4b1dea93f964a5204f1624e3",
        "name": "Monsieur Chatté",
        "lat": 22.286217921085733,
        "lng": 114.1506210443472,
        "address": [
            "91 Jervois Street",
            "香港"
        ],
        "city": "Sheung Wan",
        "state": null,
        "categories_id": "4bf58dd8d48988d119951735",
        "categories_name": "Wine Shop"
    },
    {
        "id": "4bb2deb642959c749066212c",
        "name": "Lobster & Mussels by Paul's Kitchen",
        "lat": 22.284151838700872,
        "lng": 114.15262612699492,
        "address": [
            "G/F, 16 Gough St",
            "香港"
        ],
        "city": "香港",
        "state": null,
        "categories_id": "4bf58dd8d48988d10c941735",
        "categories_name": "French Restaurant"
    },
    {
        "id": "4c78c61697028cfaf101d9fe",
        "name": "Le Moment",
        "lat": 22.282651246500638,
        "lng": 114.15270649772825,
        "address": [
            "55 Peel St",
            "中西區",
            "香港"
        ],
        "city": "中環",
        "state": "中西區",
        "categories_id": "4bf58dd8d48988d16d941735",
        "categories_name": "Café"
    },
    {
        "id": "4b29c002f964a52021a324e3",
        "name": "Amante",
        "lat": 22.2858100561312,
        "lng": 114.15147396800684,
        "address": [
            "79 Bonham Strand",
            "香港"
        ],
        "city": "Sheung Wan",
        "state": null,
        "categories_id": "4bf58dd8d48988d10c941735",
        "categories_name": "French Restaurant"
    },
    {
        "id": "53426a9b498e0f3f1fb23bee",
        "name": "The Popsy Room",
        "lat": 22.284842646491906,
        "lng": 114.14994158396485,
        "address": [
            "G/F, 30 Upper Lascar Row",
            "Hong Kong",
            "香港"
        ],
        "city": "Sheung Wan",
        "state": "Hong Kong",
        "categories_id": "4bf58dd8d48988d10c941735",
        "categories_name": "French Restaurant"
    },
    {
        "id": "5fb779cf87657d64a032d574",
        "name": "Nissa La Bella",
        "lat": 22.285029,
        "lng": 114.148416,
        "address": [
            "G/F, Upper Station Street",
            "香港"
        ],
        "city": "Sheung Wan",
        "state": null,
        "categories_id": "4bf58dd8d48988d10c941735",
        "categories_name": "French Restaurant"
    },
    {
        "id": "59d352b1dd70c52a48cee553",
        "name": "MEATS",
        "lat": 22.282043,
        "lng": 114.152626,
        "address": [
            "28–30 Staunton St",
            "Hong Kong Island",
            "香港"
        ],
        "city": "Central District",
        "state": "Hong Kong Island",
        "categories_id": "4bf58dd8d48988d1c4941735",
        "categories_name": "Restaurant"
    },
    {
        "id": "4cbbf2b2352ebfb722808ef2",
        "name": "Le Boudoir",
        "lat": 22.281470401276305,
        "lng": 114.15478703953043,
        "address": [
            "65 Wyndham St",
            "中西區",
            "香港"
        ],
        "city": "中環",
        "state": "中西區",
        "categories_id": "4bf58dd8d48988d11e941735",
        "categories_name": "Cocktail Bar"
    },
    {
        "id": "55faa664498e3cf080d4f42b",
        "name": "Figaro",
        "lat": 22.284040989617647,
        "lng": 114.15225037633404,
        "address": [
            "2 Shin Hing street (Gough Street)",
            "香港"
        ],
        "city": "香港",
        "state": null,
        "categories_id": "4bf58dd8d48988d123941735",
        "categories_name": "Wine Bar"
    },
    {
        "id": "4f6c83cfe4b06003316c2d05",
        "name": "F.A.B French American Bistro",
        "lat": 22.282209061742744,
        "lng": 114.15342797841241,
        "address": [
            "30 Hollywood Rd",
            "中西區",
            "香港"
        ],
        "city": "中環",
        "state": "中西區",
        "categories_id": "52e81612bcbc57f1066b79f1",
        "categories_name": "Bistro"
    },
    {
        "id": "5a55968081635b54ddde0259",
        "name": "Dalloyau",
        "lat": 22.277924,
        "lng": 114.16505,
        "address": [
            "Shop 325B, Level L3, Pacific Place",
            "香港"
        ],
        "city": "香港",
        "state": null,
        "categories_id": "4bf58dd8d48988d10c941735",
        "categories_name": "French Restaurant"
    },
    {
        "id": "4b1757d0f964a520eac423e3",
        "name": "French Window",
        "lat": 22.28545905897696,
        "lng": 114.15965065892063,
        "address": [
            "Unit 3101, 3/F, IFC Mall, 8 Finance St",
            "中西區",
            "香港"
        ],
        "city": "中環",
        "state": "中西區",
        "categories_id": "4bf58dd8d48988d10c941735",
        "categories_name": "French Restaurant"
    },
    {
        "id": "527227c3498ea6beb60b27da",
        "name": "Urban Bakery Works",
        "lat": 22.281240439945364,
        "lng": 114.15814564861064,
        "address": [
            "Shop 322, Landmark, 12-16 Des Voeux Rd C",
            "中西區",
            "香港"
        ],
        "city": "中環",
        "state": "中西區",
        "categories_id": "4bf58dd8d48988d16a941735",
        "categories_name": "Bakery"
    },
    {
        "id": "4b08018df964a520350223e3",
        "name": "Island Shangri-La (港島香格里拉大酒店)",
        "lat": 22.277193,
        "lng": 114.16431,
        "address": [
            "Pacific Place, Supreme Court Rd",
            "中西區",
            "香港"
        ],
        "city": "金鐘",
        "state": "中西區",
        "categories_id": "4bf58dd8d48988d1fa931735",
        "categories_name": "Hotel"
    },
    {
        "id": "56876f6b498ec1481cba48b4",
        "name": "Paradis",
        "lat": 22.280397373059927,
        "lng": 114.15508292255117,
        "address": [
            "46-48 Wyndham St.",
            "香港"
        ],
        "city": "香港",
        "state": null,
        "categories_id": "4bf58dd8d48988d116941735",
        "categories_name": "Bar"
    },
    {
        "id": "4b189513f964a52052d423e3",
        "name": "Watermark",
        "lat": 22.287309818331742,
        "lng": 114.16136400653572,
        "address": [
            "Shop L, Star Ferry (Central Ferry Pier 7), Man Kwong St",
            "中西區",
            "香港"
        ],
        "city": "中環",
        "state": "中西區",
        "categories_id": "4bf58dd8d48988d10c941735",
        "categories_name": "French Restaurant"
    },
    {
        "id": "5df21e03be1ee500087b36aa",
        "name": "Mono",
        "lat": 22.280861,
        "lng": 114.156668,
        "address": [
            "5/F, 18 On Lan Street",
            "中西區",
            "香港"
        ],
        "city": "中環",
        "state": "中西區",
        "categories_id": "4bf58dd8d48988d10c941735",
        "categories_name": "French Restaurant"
    },
    {
        "id": "4bc2be574cdfc9b689849621",
        "name": "Café Landmark",
        "lat": 22.281373718152807,
        "lng": 114.15822835097083,
        "address": [
            "Shop 107-108, 1/F, Landmark Atrium, The Landmark, 12-16 Des Voeux Rd C",
            "中西區",
            "香港"
        ],
        "city": "中環",
        "state": "中西區",
        "categories_id": "4bf58dd8d48988d16d941735",
        "categories_name": "Café"
    },
    {
        "id": "563b4943cd10392ea00d5f31",
        "name": "Foxglove",
        "lat": 22.2798706981865,
        "lng": 114.1572513558895,
        "address": [
            "2/F, Printing House, 6 Duddell St",
            "香港"
        ],
        "state": null,
        "categories_id": "4bf58dd8d48988d1d4941735",
        "categories_name": "Speakeasy"
    },
    {
        "id": "4b28c6c4f964a520209524e3",
        "name": "La Fleur",
        "lat": 22.276079022910814,
        "lng": 114.1689766383955,
        "address": [
            "8 St. Francis Ln",
            "灣仔區",
            "香港"
        ],
        "city": "灣仔",
        "state": "灣仔區",
        "categories_id": "4bf58dd8d48988d10c941735",
        "categories_name": "French Restaurant"
    },
    {
        "id": "4b25d869f964a520d97624e3",
        "name": "Blueduck Workshop",
        "lat": 22.281854002143877,
        "lng": 114.1557299982558,
        "address": [
            "4/F, Eurasia Bldg, 6, Stanley St",
            "中西區",
            "香港"
        ],
        "city": "中環",
        "state": "中西區",
        "categories_id": "4bf58dd8d48988d10c941735",
        "categories_name": "French Restaurant"
    },
    {
        "id": "5237d8e111d2c165e4a9c674",
        "name": "La Rotisserie",
        "lat": 22.27559,
        "lng": 114.171882,
        "address": [
            "19 Amoy St",
            "香港"
        ],
        "city": "香港",
        "state": null,
        "categories_id": "4bf58dd8d48988d10c941735",
        "categories_name": "French Restaurant"
    },
    {
        "id": "5ccfb7c9065ef5002c7bb6d8",
        "name": "L’Envol",
        "lat": 22.279927,
        "lng": 114.174838,
        "address": [
            "3/F, The St. Regis Hong Kong,1 Harbour Drive, Wan Chai, Hong Kong",
            "灣仔區",
            "香港"
        ],
        "city": "灣仔",
        "state": "灣仔區",
        "categories_id": "4bf58dd8d48988d10c941735",
        "categories_name": "French Restaurant"
    },
    {
        "id": "54585e28498e9eb8ccade60b",
        "name": "Cupping Room",
        "lat": 22.276315281557274,
        "lng": 114.1719603289962,
        "address": [
            "32 Swatow St",
            "灣仔區",
            "香港"
        ],
        "city": "灣仔",
        "state": "灣仔區",
        "categories_id": "4bf58dd8d48988d1e0931735",
        "categories_name": "Coffee Shop"
    },
    {
        "id": "4fa8a0dfe4b07650f767ab2e",
        "name": "La Fleur Too",
        "lat": 22.277522915739386,
        "lng": 114.16975076947645,
        "address": [
            "1/F, Johnston Building, 14-16 Johnston Rd",
            "香港"
        ],
        "city": "香港",
        "state": null,
        "categories_id": "4bf58dd8d48988d10c941735",
        "categories_name": "French Restaurant"
    },
    {
        "id": "5a60a889b37e2b2aa1d05b53",
        "name": "JUNON (仙后餐廳)",
        "lat": 22.274165115723484,
        "lng": 114.17271137237547,
        "address": [
            "2/F, Wu Chung House, 213 Queen's Rd E",
            "香港"
        ],
        "city": "香港",
        "state": null,
        "categories_id": "4bf58dd8d48988d10c941735",
        "categories_name": "French Restaurant"
    },
    {
        "id": "4fd30179e4b0d43254816eb3",
        "name": "Passion by Gérard Dubois",
        "lat": 22.275375815016254,
        "lng": 114.17223125696182,
        "address": [
            "G11, G12 and F12A, Lee Tung Avenue, No.200 Queen’s Rd E",
            "灣仔區",
            "香港"
        ],
        "city": "灣仔",
        "state": "灣仔區",
        "categories_id": "4bf58dd8d48988d16d941735",
        "categories_name": "Café"
    },
    {
        "id": "52bc262511d2e0ed6d29f525",
        "name": "Ôdelice!",
        "lat": 22.277168381059347,
        "lng": 114.16919693587278,
        "address": [
            "G/F, 2 Landale St (at Johnston Rd)",
            "香港"
        ],
        "city": "香港",
        "state": null,
        "categories_id": "4bf58dd8d48988d10c941735",
        "categories_name": "French Restaurant"
    },
    {
        "id": "5f4735c94862473708abfaea",
        "name": "Jean May",
        "lat": 22.276737,
        "lng": 114.170166,
        "address": [
            "Shop A, G/F, 14 Gresson St",
            "Hong Kong Island",
            "香港"
        ],
        "city": "Wan Chai",
        "state": "Hong Kong Island",
        "categories_id": "4bf58dd8d48988d10c941735",
        "categories_name": "French Restaurant"
    },
    {
        "id": "5693a15c498edca5918ccb0e",
        "name": "Plat Du Jour",
        "lat": 22.27794559821537,
        "lng": 114.1658620030041,
        "address": [
            "Shop 007, LG1/F, Pacific Place, 88 Queensway",
            "中西區",
            "香港"
        ],
        "city": "金鐘",
        "state": "中西區",
        "categories_id": "4bf58dd8d48988d10c941735",
        "categories_name": "French Restaurant"
    },
    {
        "id": "4b9f904af964a5209b2b37e3",
        "name": "Amuse Bouche",
        "lat": 22.277887698249206,
        "lng": 114.17625895982047,
        "address": [
            "22/F, The Hennessy, 256 Hennessy Rd",
            "灣仔區",
            "香港"
        ],
        "city": "灣仔",
        "state": "灣仔區",
        "categories_id": "4bf58dd8d48988d10c941735",
        "categories_name": "French Restaurant"
    },
    {
        "id": "553884ae498e2ed1f0d79430",
        "name": "Maison ES",
        "lat": 22.275818160923553,
        "lng": 114.16823208332062,
        "address": [
            "1A Star St",
            "香港"
        ],
        "city": "香港",
        "state": null,
        "categories_id": "4bf58dd8d48988d10c941735",
        "categories_name": "French Restaurant"
    },
    {
        "id": "5a211e18c8b2fb5c62165d2f",
        "name": "Bakehouse",
        "lat": 22.27595285588098,
        "lng": 114.17131024145355,
        "address": [
            "14 Tai Wong St East",
            "灣仔區",
            "香港"
        ],
        "city": "灣仔",
        "state": "灣仔區",
        "categories_id": "4bf58dd8d48988d16a941735",
        "categories_name": "Bakery"
    },
    {
        "id": "532c3511498e83df0fe73a0e",
        "name": "Haven",
        "lat": 22.27517052291135,
        "lng": 114.17321089981621,
        "address": [
            "G/F, Cactus Mansion, 17 McGregor St",
            "香港"
        ],
        "city": "香港",
        "state": null,
        "categories_id": "4bf58dd8d48988d10c941735",
        "categories_name": "French Restaurant"
    },
    {
        "id": "4bc6b0b3424195217992041d",
        "name": "La Crêperie",
        "lat": 22.276273432379142,
        "lng": 114.1700243546837,
        "address": [
            "1/F, Kui Chi Mansion, 100-102 Queen's Rd E",
            "灣仔區",
            "香港"
        ],
        "city": "灣仔",
        "state": "灣仔區",
        "categories_id": "52e81612bcbc57f1066b79f2",
        "categories_name": "Creperie"
    },
    {
        "id": "52974c2411d29d3815077984",
        "name": "Akrame",
        "lat": 22.276243495161395,
        "lng": 114.17098766740138,
        "address": [
            "Shop B, G/F, 9 Ship St",
            "灣仔區",
            "香港"
        ],
        "city": "灣仔",
        "state": "灣仔區",
        "categories_id": "4bf58dd8d48988d10c941735",
        "categories_name": "French Restaurant"
    },
    {
        "id": "4b7ea368f964a520a6f62fe3",
        "name": "Le Blanc",
        "lat": 22.27641,
        "lng": 114.174874,
        "address": [
            "6/F, 83 Wan Chai Rd",
            "灣仔區",
            "香港"
        ],
        "city": "灣仔",
        "state": "灣仔區",
        "categories_id": "4bf58dd8d48988d10c941735",
        "categories_name": "French Restaurant"
    },
    {
        "id": "4d17f0cdf57860fc9621c79d",
        "name": "Fleur de Sel",
        "lat": 22.278819427716368,
        "lng": 114.18363265164932,
        "address": [
            "Unit J, 2/F, Po Foo Bldg, 1 Foo Ming St",
            "香港"
        ],
        "city": "铜锣湾",
        "state": null,
        "categories_id": "4bf58dd8d48988d10c941735",
        "categories_name": "French Restaurant"
    },
    {
        "id": "53e4b592498ec9c3ab328986",
        "name": "Le Quinze Vins",
        "lat": 22.275683,
        "lng": 114.171613,
        "address": [
            "9 Swatow St., Wanchai",
            "香港"
        ],
        "city": "香港",
        "state": null,
        "categories_id": "4bf58dd8d48988d123941735",
        "categories_name": "Wine Bar"
    },
    {
        "id": "4b0588d8f964a520c6dc22e3",
        "name": "Amigo (雅谷餐廳)",
        "lat": 22.271750791142274,
        "lng": 114.18451165035454,
        "address": [
            "G/F & 1/F, Amigo Mansion, 79A Wong Nai Chung Rd",
            "香港"
        ],
        "city": "跑马地",
        "state": null,
        "categories_id": "4bf58dd8d48988d10c941735",
        "categories_name": "French Restaurant"
    },
    {
        "id": "4f34ad7be4b0c48478cf27d6",
        "name": "La Bon's Café",
        "lat": 22.276480799263485,
        "lng": 114.17633428279065,
        "address": [
            "Shop A, G/F, Wing Shing Mansion, 7 Cross Ln",
            "灣仔區",
            "香港"
        ],
        "city": "灣仔",
        "state": "灣仔區",
        "categories_id": "4bf58dd8d48988d10c941735",
        "categories_name": "French Restaurant"
    },
    {
        "id": "52a989e1498e182491b69b3d",
        "name": "The French Table",
        "lat": 22.27822353514246,
        "lng": 114.17542281457776,
        "address": [
            "23/F, 239 Hennessy Rd",
            "灣仔區",
            "香港"
        ],
        "city": "灣仔",
        "state": "灣仔區",
        "categories_id": "4bf58dd8d48988d10c941735",
        "categories_name": "French Restaurant"
    },
    {
        "id": "4b925688f964a520fdf233e3",
        "name": "Le Marron",
        "lat": 22.28003235081658,
        "lng": 114.18473514936514,
        "address": [
            "12/F, Ying Kong Mansion, 2-6 Yee Wo St",
            "香港"
        ],
        "city": "铜锣湾",
        "state": null,
        "categories_id": "4bf58dd8d48988d10c941735",
        "categories_name": "French Restaurant"
    },
    {
        "id": "556c7946498eff667034b1f6",
        "name": "Atelier Vivanda",
        "lat": 22.276122020626715,
        "lng": 114.17096336716483,
        "address": [
            "9A Ship Street",
            "灣仔區",
            "香港"
        ],
        "city": "灣仔",
        "state": "灣仔區",
        "categories_id": "4bf58dd8d48988d10c941735",
        "categories_name": "French Restaurant"
    },
    {
        "id": "4c81092651ada1cdbfb40e10",
        "name": "La Maison",
        "lat": 22.275579163453592,
        "lng": 114.1716591284331,
        "address": [
            "Unit B, 1/F, Mountain View Mansion, 2 Swatow St",
            "香港"
        ],
        "city": "香港",
        "state": null,
        "categories_id": "4bf58dd8d48988d10c941735",
        "categories_name": "French Restaurant"
    },
    {
        "id": "53bceac0498ed4a961183239",
        "name": "agnès b. LE PAIN GRILLÉ",
        "lat": 22.277744700904158,
        "lng": 114.1859225120137,
        "address": [
            "Shop 1, G/F, 111 Leighton Rd",
            "香港"
        ],
        "city": "铜锣湾",
        "state": null,
        "categories_id": "4bf58dd8d48988d10c941735",
        "categories_name": "French Restaurant"
    },
    {
        "id": "4cb3c6c375ebb60cfa91dead",
        "name": "DONQ",
        "lat": 22.2803623572862,
        "lng": 114.18446860063578,
        "address": [
            "B/F, Sogo, 555 Hennessy Rd",
            "香港"
        ],
        "city": "铜锣湾",
        "state": null,
        "categories_id": "4bf58dd8d48988d16a941735",
        "categories_name": "Bakery"
    },
    {
        "id": "5a4321ea911fc41b869aaf79",
        "name": "Le Boucher Francais",
        "lat": 22.275726,
        "lng": 114.171545,
        "address": [
            "G/F, 5-7 Swatow St",
            "灣仔區",
            "香港"
        ],
        "city": "灣仔",
        "state": "灣仔區",
        "categories_id": "4bf58dd8d48988d10c941735",
        "categories_name": "French Restaurant"
    },
    {
        "id": "4d4e3b2494398cfa08b699c8",
        "name": "agnès b. CAFÉ L.P.G.",
        "lat": 22.27879331815123,
        "lng": 114.18241759434537,
        "address": [
            "6/F, Times Square, 1 Matheson St.",
            "香港"
        ],
        "city": "铜锣湾",
        "state": null,
        "categories_id": "4bf58dd8d48988d16d941735",
        "categories_name": "Café"
    },
    {
        "id": "4ea7f819722e38f634c6e19d",
        "name": "The Legend Concept",
        "lat": 22.27672866251789,
        "lng": 114.16933857093656,
        "address": [
            "3A, 3/F, Shun Fat Bldg, 72-76 Queen's Rd E",
            "灣仔區",
            "香港"
        ],
        "city": "灣仔",
        "state": "灣仔區",
        "categories_id": "4bf58dd8d48988d10c941735",
        "categories_name": "French Restaurant"
    },
    {
        "id": "4c9b09d49c66370409db5dfd",
        "name": "Pomme",
        "lat": 22.277384457552113,
        "lng": 114.17179873782808,
        "address": [
            "G/F, Southorn Commercial Bldg,11 Luard Rd",
            "灣仔區",
            "香港"
        ],
        "city": "灣仔",
        "state": "灣仔區",
        "categories_id": "4bf58dd8d48988d16d941735",
        "categories_name": "Café"
    },
    {
        "id": "55c4a844498eb25dd391e462",
        "name": "Fishsteria Seafood Place",
        "lat": 22.275749,
        "lng": 114.17046,
        "address": [
            "G/F-1/F, 111 Queen's Rd E",
            "灣仔區",
            "香港"
        ],
        "city": "灣仔",
        "state": "灣仔區",
        "categories_id": "4bf58dd8d48988d1ce941735",
        "categories_name": "Seafood Restaurant"
    },
    {
        "id": "53c9e44b498e7496ae1d8541",
        "name": "simplylife BAKERY CAFÉ",
        "lat": 22.28252542532681,
        "lng": 114.18517784354346,
        "address": [
            "Shop A, C & D, G/F, 13-15 Cleveland St, Fashion Walk",
            "香港"
        ],
        "city": "铜锣湾",
        "state": null,
        "categories_id": "4bf58dd8d48988d16d941735",
        "categories_name": "Café"
    },
    {
        "id": "4de4df07d164df85753387b7",
        "name": "Saint-Germain",
        "lat": 22.269767582030138,
        "lng": 114.18360572459001,
        "address": [
            "1A Wong Nai Chung Rd",
            "香港"
        ],
        "city": "跑马地",
        "state": null,
        "categories_id": "4bf58dd8d48988d10c941735",
        "categories_name": "French Restaurant"
    },
    {
        "id": "576231ba498ef7dda667dd47",
        "name": "Chez Ed",
        "lat": 22.277332,
        "lng": 114.18144,
        "address": [
            "15/F, Zing, 38 Yiu Wa St",
            "香港"
        ],
        "city": "香港",
        "state": null,
        "categories_id": "4bf58dd8d48988d10c941735",
        "categories_name": "French Restaurant"
    },
    {
        "id": "57458eab498eda84587dfd1f",
        "name": "Le Rêve",
        "lat": 22.277279,
        "lng": 114.181636,
        "address": [
            "10/F, Zing!, 38 Yiu Wa St",
            "香港"
        ],
        "city": "铜锣湾",
        "state": null,
        "categories_id": "4bf58dd8d48988d10c941735",
        "categories_name": "French Restaurant"
    },
    {
        "id": "4b0e0a22f964a520445423e3",
        "name": "The Pawn",
        "lat": 22.276297,
        "lng": 114.171486,
        "address": [
            "1-3/F, 62 Johnston Rd",
            "灣仔區",
            "香港"
        ],
        "city": "灣仔",
        "state": "灣仔區",
        "categories_id": "4bf58dd8d48988d155941735",
        "categories_name": "Gastropub"
    },
    {
        "id": "4cf0efa3899c6ea85285edc1",
        "name": "TA Pantry",
        "lat": 22.276598,
        "lng": 114.168181,
        "address": [
            "Flat C, 1/F, Moon Star Court, 2D Star Street",
            "灣仔區",
            "香港"
        ],
        "city": "灣仔",
        "state": "灣仔區",
        "categories_id": "4bf58dd8d48988d10c941735",
        "categories_name": "French Restaurant"
    },
    {
        "id": "4dbeb00a0437955ec06ab030",
        "name": "La Bon Restaurant & Lounge (意法私房餐廳)",
        "lat": 22.279248291484432,
        "lng": 114.18198645114899,
        "address": [
            "10/F, Circle Tower, 28 Tang Lung St",
            "香港"
        ],
        "city": "铜锣湾",
        "state": null,
        "categories_id": "4bf58dd8d48988d10c941735",
        "categories_name": "French Restaurant"
    },
    {
        "id": "4bb2b9cc35f0c9b68fb5bb83",
        "name": "Bistro Delifrance",
        "lat": 22.278902743176236,
        "lng": 114.18200285675519,
        "address": [
            "Shop B225A, B/F, Times Square, 1 Matheson St",
            "香港"
        ],
        "city": "铜锣湾",
        "state": null,
        "categories_id": "4bf58dd8d48988d10c941735",
        "categories_name": "French Restaurant"
    },
    {
        "id": "518afc12498ee61eb51197fe",
        "name": "Maison Eric Kayser",
        "lat": 22.27035426669324,
        "lng": 114.18542857953227,
        "address": [
            "60 Ventris Rd",
            "香港"
        ],
        "city": "跑马地",
        "state": null,
        "categories_id": "4bf58dd8d48988d16a941735",
        "categories_name": "Bakery"
    },
    {
        "id": "4b6d622df964a52008742ce3",
        "name": "La Bons Brasserie",
        "lat": 22.274683,
        "lng": 114.172514,
        "address": [
            "222 Queen's Road East, 2/F",
            "香港"
        ],
        "state": null,
        "categories_id": "4bf58dd8d48988d110941735",
        "categories_name": "Italian Restaurant"
    },
    {
        "id": "53c11dbd498eb5bf28f1121a",
        "name": "Quayside Harbour Front Restaurant and Bar",
        "lat": 22.281473006067984,
        "lng": 114.16891225332479,
        "address": [
            "Fenwick Pier G/F Fleet Arcade. 1 Lung King Street",
            "灣仔區",
            "香港"
        ],
        "city": "灣仔",
        "state": "灣仔區",
        "categories_id": "4bf58dd8d48988d10c941735",
        "categories_name": "French Restaurant"
    },
    {
        "id": "4d4ec497f6acba7aff69f4b5",
        "name": "Al Dente",
        "lat": 22.278854154350043,
        "lng": 114.17389418477107,
        "address": [
            "153 Jaffe Rd",
            "灣仔區",
            "香港"
        ],
        "city": "灣仔",
        "state": "灣仔區",
        "categories_id": "4bf58dd8d48988d110941735",
        "categories_name": "Italian Restaurant"
    },
    {
        "id": "5818748b38faa6cbe263a3a8",
        "name": "Chez Moi",
        "lat": 22.277582,
        "lng": 114.18503,
        "address": [
            "11/F, Cubus, 1 Hoi Ping Rd",
            "香港"
        ],
        "city": "铜锣湾",
        "state": null,
        "categories_id": "4bf58dd8d48988d10c941735",
        "categories_name": "French Restaurant"
    },
    {
        "id": "4e57b7a5d22d61e8f33db57c",
        "name": "agnès b. LE PAIN GRILLÉ",
        "lat": 22.2777387900953,
        "lng": 114.18527373181121,
        "address": [
            "15/F, Cubus, 1 Hoi Ping Rd",
            "香港"
        ],
        "city": "铜锣湾",
        "state": null,
        "categories_id": "4bf58dd8d48988d10c941735",
        "categories_name": "French Restaurant"
    },
    {
        "id": "569a2ded498eb2bf8e53d062",
        "name": "Another Place by David Myers",
        "lat": 22.28790122104044,
        "lng": 114.19013186210312,
        "address": [
            "5/F Block C, Sea View Estate, Tin Hau",
            "香港"
        ],
        "city": "香港",
        "state": null,
        "categories_id": "4bf58dd8d48988d10c941735",
        "categories_name": "French Restaurant"
    },
    {
        "id": "4c9c99a0542b224b8eace19f",
        "name": "Mark One",
        "lat": 22.28635744115809,
        "lng": 114.19239371244045,
        "address": [
            "Shop 3 & 5, G/F, Jupiter Tower, 9 Jupiter St",
            "香港"
        ],
        "city": "北角",
        "state": null,
        "categories_id": "4bf58dd8d48988d10c941735",
        "categories_name": "French Restaurant"
    },
    {
        "id": "4c42bde0a5c5ef3b4992b06f",
        "name": "À la Umai",
        "lat": 22.285042,
        "lng": 114.191817,
        "address": [
            "25/F, Morecrown Commercial Bldg, 108 Electric Rd",
            "香港"
        ],
        "city": "铜锣湾",
        "state": null,
        "categories_id": "4bf58dd8d48988d10c941735",
        "categories_name": "French Restaurant"
    },
    {
        "id": "5139dd03e4b06f66133265c1",
        "name": "TA Pantry",
        "lat": 22.287868517300236,
        "lng": 114.19019765597727,
        "address": [
            "5/F, Block C, Sea View Estate, 2-8 Watson Rd",
            "香港"
        ],
        "city": "北角",
        "state": null,
        "categories_id": "4bf58dd8d48988d10c941735",
        "categories_name": "French Restaurant"
    },
    {
        "id": "4c6683b9e1da1b8dba1a9bc3",
        "name": "Jacky's Kitchen",
        "lat": 22.286184,
        "lng": 114.190569,
        "address": [
            "G/F, 23 Whitfield Rd",
            "香港"
        ],
        "city": "铜锣湾",
        "state": null,
        "categories_id": "4bf58dd8d48988d10c941735",
        "categories_name": "French Restaurant"
    },
    {
        "id": "5773d379498ed1267b5bfcc7",
        "name": "Second Draft",
        "lat": 22.279895989663093,
        "lng": 114.19244682939343,
        "address": [
            "98 Tung Lo Wan Rd",
            "香港"
        ],
        "city": "Tai Hang",
        "state": null,
        "categories_id": "4bf58dd8d48988d155941735",
        "categories_name": "Gastropub"
    },
    {
        "id": "4cc3bbd7d43ba1432f8462f8",
        "name": "Classified",
        "lat": 22.28001430559742,
        "lng": 114.19238930011414,
        "address": [
            "G/F, 1-9 Lin Fa Kung St W",
            "香港"
        ],
        "city": "香港",
        "state": null,
        "categories_id": "4bf58dd8d48988d16d941735",
        "categories_name": "Café"
    },
    {
        "id": "4cd008b001eaf04d8640b65d",
        "name": "Flame at Towngas Avenue",
        "lat": 22.282276267359645,
        "lng": 114.18469548225403,
        "address": [
            "59-65 Paterson St (at Gloucester Rd)",
            "香港"
        ],
        "city": "铜锣湾",
        "state": null,
        "categories_id": "4bf58dd8d48988d10c941735",
        "categories_name": "French Restaurant"
    },
    {
        "id": "54ccf487498eb6d4664b0b3d",
        "name": "Les Pucelles",
        "lat": 22.278625856024316,
        "lng": 114.19077238437285,
        "address": [
            "G/F, No.26 School Street, Tai Hang",
            "香港"
        ],
        "city": "香港",
        "state": null,
        "categories_id": "4bf58dd8d48988d10c941735",
        "categories_name": "French Restaurant"
    },
    {
        "id": "4e75a49dd4c0934471fbf431",
        "name": "Green",
        "lat": 22.301039476320575,
        "lng": 114.17985584035574,
        "address": [
            "7/F, Hotel ICON, 17 Science Museum Rd",
            "Kowloon City",
            "香港"
        ],
        "city": "尖沙咀",
        "state": "Kowloon City",
        "categories_id": "4bf58dd8d48988d16d941735",
        "categories_name": "Café"
    },
    {
        "id": "5cb9590e787dba0031202ebf",
        "name": "The Pudding Nouveau",
        "lat": 22.278705,
        "lng": 114.191949,
        "address": [
            "大坑京街17A",
            "香港"
        ],
        "city": "香港",
        "state": null,
        "categories_id": "4bf58dd8d48988d10c941735",
        "categories_name": "French Restaurant"
    },
    {
        "id": "4d54f8b296ed548121780370",
        "name": "Délifrance",
        "lat": 22.27981472991773,
        "lng": 114.18972765529504,
        "address": [
            "Shop 101, 1/F, Hong Kong Central Library, 66 Causeway Rd",
            "香港"
        ],
        "city": "铜锣湾",
        "state": null,
        "categories_id": "4bf58dd8d48988d16d941735",
        "categories_name": "Café"
    },
    {
        "id": "4fa27f76e4b0489ba39519f3",
        "name": "Café R&C",
        "lat": 22.277944914599296,
        "lng": 114.18675783892373,
        "address": [
            "22-24 Haven St",
            "香港"
        ],
        "city": "铜锣湾",
        "state": null,
        "categories_id": "4bf58dd8d48988d16d941735",
        "categories_name": "Café"
    },
    {
        "id": "53c797c9498ef985d0045863",
        "name": "La Table",
        "lat": 22.29965323860807,
        "lng": 114.18000335871105,
        "address": [
            "1/F, New World Millennium Hong Kong Hotel, 72 Mody Rd",
            "Kowloon City",
            "香港"
        ],
        "city": "尖沙咀",
        "state": "Kowloon City",
        "categories_id": "4bf58dd8d48988d10c941735",
        "categories_name": "French Restaurant"
    },
    {
        "id": "4bab9aecf964a5205cb83ae3",
        "name": "Benson Cuisine & Wine",
        "lat": 22.268676990917964,
        "lng": 114.1862352189363,
        "address": [
            "G/F, 12C Sing Woo Road",
            "香港"
        ],
        "city": "跑马地",
        "state": null,
        "categories_id": "4bf58dd8d48988d10c941735",
        "categories_name": "French Restaurant"
    },
    {
        "id": "5dc92fff61f86c0008ec4a85",
        "name": "DONQ",
        "lat": 22.293083,
        "lng": 114.200719,
        "address": [
            "Shop NP-13-002, B1/F, Harbour North Phase 2, 123 Java Rd",
            "香港"
        ],
        "city": "北角",
        "state": null,
        "categories_id": "4bf58dd8d48988d16a941735",
        "categories_name": "Bakery"
    },
    {
        "id": "4d327ed58c42a1cd0aa3e95d",
        "name": "Derby Restaurant & Bar",
        "lat": 22.265747532580033,
        "lng": 114.18615911284375,
        "address": [
            "B1/F & 1/F, The Hong Kong Jockey Club Happy Valley Clubhouse, 25 Shan Kwong Rd",
            "香港"
        ],
        "city": "跑马地",
        "state": null,
        "categories_id": "4bf58dd8d48988d10c941735",
        "categories_name": "French Restaurant"
    },
    {
        "id": "5195bea6498e9375ec6415ed",
        "name": "Ausone",
        "lat": 22.26921320093934,
        "lng": 114.18401492415809,
        "address": [
            "G/F, 41 Yik Yam St.",
            "香港"
        ],
        "city": "跑马地",
        "state": null,
        "categories_id": "4bf58dd8d48988d10c941735",
        "categories_name": "French Restaurant"
    },
    {
        "id": "523279f293cd8841cb17c90f",
        "name": "Plat du Jour",
        "lat": 22.28786627490614,
        "lng": 114.21133197279292,
        "address": [
            "G/F, 21 Hoi Wan St",
            "香港"
        ],
        "city": "鰂魚涌",
        "state": null,
        "categories_id": "4bf58dd8d48988d10c941735",
        "categories_name": "French Restaurant"
    },
    {
        "id": "591168973fcee83cbac1826d",
        "name": "La Rôtisserie",
        "lat": 22.285329989061267,
        "lng": 114.21241343021391,
        "address": [
            "G/F, 2-10, 12A-12H Westlands Road",
            "香港"
        ],
        "city": "鰂魚涌",
        "state": null,
        "categories_id": "4bf58dd8d48988d10c941735",
        "categories_name": "French Restaurant"
    },
    {
        "id": "5770b635498e6907b3233fa8",
        "name": "Eiffel Bistro",
        "lat": 22.286513,
        "lng": 114.214445,
        "address": [
            "Shop 514, G/F, Kin On Mansion, 3 Tai Yue Ave",
            "香港"
        ],
        "city": "香港",
        "state": null,
        "categories_id": "4bf58dd8d48988d10c941735",
        "categories_name": "French Restaurant"
    },
    {
        "id": "54a92d37498e9a3091602dac",
        "name": "Little Kitchen",
        "lat": 22.281781253443764,
        "lng": 114.22151634936964,
        "address": [
            "112-114 Cheung Lok Building, Sai Wan Ho Street",
            "香港"
        ],
        "city": "香港",
        "state": null,
        "categories_id": "4bf58dd8d48988d10c941735",
        "categories_name": "French Restaurant"
    },
    {
        "id": "4b0588d5f964a52047dc22e3",
        "name": "Gaddi's (吉地士)",
        "lat": 22.29481611007546,
        "lng": 114.17220517337142,
        "address": [
            "1/F, The Peninsula Hong Kong, 19-21 Salisbury Road",
            "Kowloon City",
            "香港"
        ],
        "city": "尖沙咀",
        "state": "Kowloon City",
        "categories_id": "4bf58dd8d48988d10c941735",
        "categories_name": "French Restaurant"
    },
    {
        "id": "554a082f498efd384821b585",
        "name": "Scarlett Café & Wine Bar",
        "lat": 22.302346922148804,
        "lng": 114.17663247550969,
        "address": [
            "G/F., 2 Austin Ave",
            "Kowloon City",
            "香港"
        ],
        "city": "尖沙咀",
        "state": "Kowloon City",
        "categories_id": "4bf58dd8d48988d10c941735",
        "categories_name": "French Restaurant"
    },
    {
        "id": "4b83c69bf964a520f70f31e3",
        "name": "Hugo's (希戈餐廳)",
        "lat": 22.29734429485234,
        "lng": 114.17403503502516,
        "address": [
            "Lobby level, Hyatt Regency Hong Kong, Tsim Sha Tsui (18 Hanoi Road)",
            "Kowloon",
            "香港"
        ],
        "city": "Tsim Sha Tsui",
        "state": "Kowloon",
        "categories_id": "4bf58dd8d48988d10c941735",
        "categories_name": "French Restaurant"
    },
    {
        "id": "539e8491498e78925a445d1e",
        "name": "Épure",
        "lat": 22.295992682012592,
        "lng": 114.16825931721479,
        "address": [
            "Shop 403, 4/F, Ocean Centre, Harbour City, 17 Canton Rd",
            "Kowloon City",
            "香港"
        ],
        "city": "九龍",
        "state": "Kowloon City",
        "categories_id": "4bf58dd8d48988d10c941735",
        "categories_name": "French Restaurant"
    },
    {
        "id": "4ba394c8f964a520134938e3",
        "name": "Whisk",
        "lat": 22.300069769926445,
        "lng": 114.17227892846529,
        "address": [
            "5/F, The Mira Hong Kong, 118 Nathan Rd",
            "Kowloon City",
            "香港"
        ],
        "city": "尖沙咀",
        "state": "Kowloon City",
        "categories_id": "4bf58dd8d48988d10c941735",
        "categories_name": "French Restaurant"
    },
    {
        "id": "5a3e4413d69ed02b01666bc3",
        "name": "La Vache!",
        "lat": 22.29787935885306,
        "lng": 114.17495501713671,
        "address": [
            "G/F, 12 Hart Ave",
            "Kowloon",
            "香港"
        ],
        "city": "Tsim Sha Tsui",
        "state": "Kowloon",
        "categories_id": "4bf58dd8d48988d10c941735",
        "categories_name": "French Restaurant"
    },
    {
        "id": "4da0598de8a6721e5e4435a5",
        "name": "St. George",
        "lat": 22.29576716550654,
        "lng": 114.16980642760099,
        "address": [
            "Hullett House, 2A Canton Rd",
            "Kowloon City",
            "香港"
        ],
        "city": "尖沙咀",
        "state": "Kowloon City",
        "categories_id": "4bf58dd8d48988d10c941735",
        "categories_name": "French Restaurant"
    },
    {
        "id": "4c81cafed8086dcbb5ee7052",
        "name": "Harlan's",
        "lat": 22.2997009219395,
        "lng": 114.17235553359511,
        "address": [
            "Shop UG1, 19/F, The One, 100 Nathan Rd",
            "Kowloon City",
            "香港"
        ],
        "city": "尖沙咀",
        "state": "Kowloon City",
        "categories_id": "4bf58dd8d48988d10c941735",
        "categories_name": "French Restaurant"
    },
    {
        "id": "4c41aa276c1a95219e9db96a",
        "name": "Délifrance",
        "lat": 22.286783639233253,
        "lng": 114.213680292711,
        "address": [
            "Shop G515, G/F, Kin On Mansion",
            "香港"
        ],
        "city": "太古城",
        "state": null,
        "categories_id": "4bf58dd8d48988d16d941735",
        "categories_name": "Café"
    },
    {
        "id": "585a828a2e9fde03eb3288b7",
        "name": "Passion by Gérard Dubois",
        "lat": 22.285940536625798,
        "lng": 114.21740599425523,
        "address": [
            "Shop 308&315, 3/F, Cityplaza, 18 Taikoo Shing Rd",
            "香港"
        ],
        "city": "太古城",
        "state": null,
        "categories_id": "4bf58dd8d48988d10c941735",
        "categories_name": "French Restaurant"
    },
    {
        "id": "4ba47481f964a520419e38e3",
        "name": "HABITŪ caffè",
        "lat": 22.2864414589104,
        "lng": 114.21734302327057,
        "address": [
            "Shop 22B, 2/F, Cityplaza 2, 18 Taikoo Shing Rd",
            "香港"
        ],
        "city": "香港",
        "state": null,
        "categories_id": "4bf58dd8d48988d16d941735",
        "categories_name": "Café"
    },
    {
        "id": "598443452632ec78a0620c3b",
        "name": "Charlie Brown Café",
        "lat": 22.30032361309725,
        "lng": 114.1752986231586,
        "address": [
            "G/F & 1/F Fortuna House, 58-60 Granville Rd",
            "Kowloon",
            "香港"
        ],
        "city": "Tsim Sha Tsui",
        "state": "Kowloon",
        "categories_id": "4bf58dd8d48988d16d941735",
        "categories_name": "Café"
    },
    {
        "id": "4d95af76b188721ea28be336",
        "name": "Starbucks (星巴克)",
        "lat": 22.29724655516695,
        "lng": 114.17628353214099,
        "address": [
            "Shop G5-6, Mirror Tower (61 Mody Rd)",
            "Kowloon City",
            "香港"
        ],
        "city": "尖沙咀",
        "state": "Kowloon City",
        "categories_id": "4bf58dd8d48988d1e0931735",
        "categories_name": "Coffee Shop"
    },
    {
        "id": "4df8a77a88778675b5491be0",
        "name": "James' Kitchen",
        "lat": 22.299742,
        "lng": 114.174259,
        "address": [
            "9/F, H8, 8 Hau Fook St",
            "Kowloon City",
            "香港"
        ],
        "city": "尖沙咀",
        "state": "Kowloon City",
        "categories_id": "4bf58dd8d48988d10c941735",
        "categories_name": "French Restaurant"
    },
    {
        "id": "557e605f498e1a9641e13671",
        "name": "BriKetenia",
        "lat": 22.310705346993156,
        "lng": 114.22586421590628,
        "address": [
            "Shop B1, 1/F, TG Place, 10 Shing Yip Street",
            "香港"
        ],
        "city": "香港",
        "state": null,
        "categories_id": "4bf58dd8d48988d10c941735",
        "categories_name": "French Restaurant"
    },
    {
        "id": "4b174425f964a5205ec423e3",
        "name": "Factory 99",
        "lat": 22.31245811517449,
        "lng": 114.2233202559652,
        "address": [
            "1/F, How Ming Factory Bldg, 99 How Ming St",
            "香港"
        ],
        "city": "观塘",
        "state": null,
        "categories_id": "4bf58dd8d48988d1c4941735",
        "categories_name": "Restaurant"
    },
    {
        "id": "4c807aac74d7b60c2c4f6ed8",
        "name": "Yamazaki Bakery (山崎麵飽)",
        "lat": 22.31267149815249,
        "lng": 114.22577133803858,
        "address": [
            "Shop C-1A, Concourse Level, apm, Millennium City 5, 418 Kwun Tong Rd",
            "香港"
        ],
        "city": "观塘",
        "state": null,
        "categories_id": "4bf58dd8d48988d16a941735",
        "categories_name": "Bakery"
    },
    {
        "id": "505ecb1ee4b02adef090f47d",
        "name": "The Stan Café",
        "lat": 22.219560627578776,
        "lng": 114.20982853928437,
        "address": [
            "5/F, Stanley Plaza, Carmel Rd",
            "香港"
        ],
        "city": "香港",
        "state": null,
        "categories_id": "4bf58dd8d48988d10c941735",
        "categories_name": "French Restaurant"
    },
    {
        "id": "4b0588d0f964a52034db22e3",
        "name": "Australia Dairy Company (澳洲牛奶公司)",
        "lat": 22.304604,
        "lng": 114.170555,
        "address": [
            "G/F, 47-49 Parkes St",
            "香港"
        ],
        "city": "香港",
        "state": null,
        "categories_id": "58daa1558bbb0b01f18ec1d3",
        "categories_name": "Cha Chaan Teng"
    },
    {
        "id": "4f783771e4b0a174affe74ac",
        "name": "Red Chimneys Restaurant (紅煙窗餐廳)",
        "lat": 22.304195,
        "lng": 114.171993,
        "address": [
            "2/F, Prudential Hotel, 222 Nathan Rd (at Tak Shing St)",
            "香港"
        ],
        "city": "香港",
        "state": null,
        "categories_id": "4bf58dd8d48988d10c941735",
        "categories_name": "French Restaurant"
    },
    {
        "id": "5b1a34ef78782c002cd2db76",
        "name": "Odelice!",
        "lat": 22.300255,
        "lng": 114.172231,
        "address": [
            "4/F, L407, The ONE Mall, 100 Nathan Road, TST",
            "香港"
        ],
        "city": "香港",
        "state": null,
        "categories_id": "4bf58dd8d48988d10c941735",
        "categories_name": "French Restaurant"
    },
    {
        "id": "551ce6c6498e1c7ffe86d678",
        "name": "Chef Stage by Eddy Chu (廚社)",
        "lat": 22.297009715544977,
        "lng": 114.17060419340159,
        "address": [
            "19/F, 17-19 Ashley Rd",
            "香港"
        ],
        "city": "香港",
        "state": null,
        "categories_id": "4bf58dd8d48988d10c941735",
        "categories_name": "French Restaurant"
    },
    {
        "id": "56bb16a7498e8947849af423",
        "name": "The Chop House",
        "lat": 22.300814629015186,
        "lng": 114.1729904642108,
        "address": [
            "Shop 3013C, 3/F Miramar Shopping Centre (132 Nathan Road, Tsim Sha Tsui)",
            "香港"
        ],
        "city": "香港",
        "state": null,
        "categories_id": "4bf58dd8d48988d1cc941735",
        "categories_name": "Steakhouse"
    },
    {
        "id": "53510fd7498e62fb349b7436",
        "name": "R&B Research Bakery",
        "lat": 22.302554493578356,
        "lng": 114.17182627036854,
        "address": [
            "3/F, Pacific Mansion, 172-174 Nathan Rd",
            "Kowloon City",
            "香港"
        ],
        "city": "尖沙咀",
        "state": "Kowloon City",
        "categories_id": "52e81612bcbc57f1066b79f9",
        "categories_name": "Modern European Restaurant"
    },
    {
        "id": "528746ef11d222c35ded6a30",
        "name": "agnès b. LE PAIN GRILLÉ",
        "lat": 22.297480072867774,
        "lng": 114.17340444770622,
        "address": [
            "Shop 117 & 118, L1/F, K11 Art Mall, 18 Hanoi Road, Tsim Sha Tsui",
            "香港"
        ],
        "state": null,
        "categories_id": "4bf58dd8d48988d16d941735",
        "categories_name": "Café"
    },
    {
        "id": "4b45cd6bf964a520891026e3",
        "name": "Main St. Deli",
        "lat": 22.29634226831426,
        "lng": 114.17018920151426,
        "address": [
            "Langham Hotel Hong Kong, 8 Peking Rd",
            "香港"
        ],
        "city": "尖沙咀",
        "state": null,
        "categories_id": "4bf58dd8d48988d146941735",
        "categories_name": "Deli / Bodega"
    },
    {
        "id": "56ab52de498eabc42fe8bb77",
        "name": "PAN de PAIN",
        "lat": 22.297385223790485,
        "lng": 114.17349233991376,
        "address": [
            "Shop 11B, Basement 1, K11, 18 Hanoi Rd",
            "Kowloon",
            "香港"
        ],
        "city": "Tsim Sha Tsui",
        "state": "Kowloon",
        "categories_id": "4bf58dd8d48988d1d0941735",
        "categories_name": "Dessert Shop"
    },
    {
        "id": "4b6d09eaf964a5203a642ce3",
        "name": "Tim Kee French Sandwiches (添記法式三文治)",
        "lat": 22.307570983676914,
        "lng": 114.16612076813945,
        "address": [
            "30 Man Yuen St",
            "香港"
        ],
        "city": "油麻地",
        "state": null,
        "categories_id": "4bf58dd8d48988d1c5941735",
        "categories_name": "Sandwich Place"
    },
    {
        "id": "4e3371821495fa2def541502",
        "name": "Coco",
        "lat": 22.30038532417616,
        "lng": 114.1722554577479,
        "address": [
            "The Mira, 118 Nathan Rd",
            "Kowloon City",
            "香港"
        ],
        "city": "尖沙咀",
        "state": "Kowloon City",
        "categories_id": "4bf58dd8d48988d1d0941735",
        "categories_name": "Dessert Shop"
    },
    {
        "id": "4dbec294cda109aa6cd12026",
        "name": "Yee Shun Dairy Company (港澳義順牛奶公司)",
        "lat": 22.304869,
        "lng": 114.17102,
        "address": [
            "63 Pilkem St",
            "Kowloon City",
            "香港"
        ],
        "city": "九龍",
        "state": "Kowloon City",
        "categories_id": "4bf58dd8d48988d1d0941735",
        "categories_name": "Dessert Shop"
    },
    {
        "id": "5bc5fd24e4c459002c0ba484",
        "name": "Artisan De La Truffe (松藝館)",
        "lat": 22.294901,
        "lng": 114.165188,
        "address": [
            "Shop OTE303, 3/F, Ocean Terminal, Harbour City, 3-27 Canton Rd",
            "Kowloon City",
            "香港"
        ],
        "city": "尖沙咀",
        "state": "Kowloon City",
        "categories_id": "4bf58dd8d48988d10c941735",
        "categories_name": "French Restaurant"
    },
    {
        "id": "5aa36dd4628c830943dacbde",
        "name": "à nu retrouvez-vous",
        "lat": 22.294603,
        "lng": 114.165201,
        "address": [
            "Shop OTE 402, 4/F, Ocean Terminal (Harbour City, 3-27 Canton Road)",
            "Kowloon City",
            "香港"
        ],
        "city": "尖沙咀",
        "state": "Kowloon City",
        "categories_id": "4bf58dd8d48988d10c941735",
        "categories_name": "French Restaurant"
    },
    {
        "id": "50310249e4b0eed9c44c9d96",
        "name": "Maxim’s Cakes (美心西餅)",
        "lat": 22.29660086983999,
        "lng": 114.17199530212143,
        "address": [
            "Kiosk TST1, Unpaid Concourse, MTR Tsim Sha Tsui Station, Tsim Sha Tsui, Kowloon",
            "香港"
        ],
        "city": "香港",
        "state": null,
        "categories_id": "4bf58dd8d48988d16a941735",
        "categories_name": "Bakery"
    },
    {
        "id": "5946100b4ce06616d2d361e6",
        "name": "Le 39V",
        "lat": 22.303305,
        "lng": 114.16029,
        "address": [
            "Shop A, 101/F, International Commerce Centre, 1 Austin Rd W",
            "Kowloon City",
            "香港"
        ],
        "city": "尖沙咀",
        "state": "Kowloon City",
        "categories_id": "4bf58dd8d48988d10c941735",
        "categories_name": "French Restaurant"
    },
    {
        "id": "4e0084621f6ef39c29401879",
        "name": "Raymond'z Kitchen",
        "lat": 22.307645336809845,
        "lng": 114.1654487911651,
        "address": [
            "41 Man Yuen St (Ferry Point)",
            "KLN",
            "香港"
        ],
        "city": "Jordan",
        "state": "KLN",
        "categories_id": "4bf58dd8d48988d10c941735",
        "categories_name": "French Restaurant"
    },
    {
        "id": "4b88c3c9f964a520730c32e3",
        "name": "HABITŪ table",
        "lat": 22.303400846846607,
        "lng": 114.16283767038755,
        "address": [
            "Shop 1001, Fire Zone, Elements, 1 Austin Rd W",
            "香港"
        ],
        "city": "West Kowloon",
        "state": null,
        "categories_id": "4bf58dd8d48988d16d941735",
        "categories_name": "Café"
    },
    {
        "id": "564d5f13498e3e0686ed0b82",
        "name": "Passion by Gérard Dubois",
        "lat": 22.318521192346548,
        "lng": 114.16851694556999,
        "address": [
            "Shop 11, 4/F, Langham Place, 8 Argyle St",
            "香港"
        ],
        "city": "香港",
        "state": null,
        "categories_id": "4bf58dd8d48988d16a941735",
        "categories_name": "Bakery"
    },
    {
        "id": "4c6a79b5d0bdc9b6ba80a80b",
        "name": "The Ritz-Carlton, Hong Kong (香港麗思卡爾頓酒店)",
        "lat": 22.3034608,
        "lng": 114.1602184,
        "address": [
            "International Commerce Centre, 1 Austin Road West, Kowloon, Tsim Sha Tsui",
            "香港"
        ],
        "city": "West Kowloon",
        "state": null,
        "categories_id": "4bf58dd8d48988d1fa931735",
        "categories_name": "Hotel"
    },
    {
        "id": "5ebd39aeec55a70008cb49ca",
        "name": "District 8",
        "lat": 22.303169,
        "lng": 114.159977,
        "address": [
            "Civic Square",
            "Kowloon",
            "香港"
        ],
        "city": "West Kowloon",
        "state": "Kowloon",
        "categories_id": "4bf58dd8d48988d10c941735",
        "categories_name": "French Restaurant"
    },
    {
        "id": "5ab259ff2be4251b7a820b9e",
        "name": "Bistro Bloom",
        "lat": 22.318368,
        "lng": 114.168729,
        "address": [
            "Shop 2, Level 13, Langham Place, 8 Argyle St",
            "香港"
        ],
        "city": "香港",
        "state": null,
        "categories_id": "4bf58dd8d48988d10c941735",
        "categories_name": "French Restaurant"
    },
    {
        "id": "528380e2498ef3b6ad4894de",
        "name": "Madam S'ate",
        "lat": 22.304166464844243,
        "lng": 114.16099975802301,
        "address": [
            "Shop R0009, Roof Deck, Civic Square, Elements (Civic Square, Elements)",
            "香港",
            "香港"
        ],
        "city": "西九龍",
        "state": "香港",
        "categories_id": "4bf58dd8d48988d10c941735",
        "categories_name": "French Restaurant"
    },
    {
        "id": "4eaff89ce30009a54420510d",
        "name": "Baby Café",
        "lat": 22.318354167336967,
        "lng": 114.16856202769819,
        "address": [
            "L11-30, Langham Place, 8 Argyle St",
            "油尖旺區",
            "香港"
        ],
        "city": "Mongkok",
        "state": "油尖旺區",
        "categories_id": "4bf58dd8d48988d16d941735",
        "categories_name": "Café"
    },
    {
        "id": "55e290b0498e44d127eefcd9",
        "name": "Sky726",
        "lat": 22.321237,
        "lng": 114.168943,
        "address": [
            "25/F, 726 Nathan Rd",
            "香港"
        ],
        "city": "香港",
        "state": null,
        "categories_id": "4bf58dd8d48988d10c941735",
        "categories_name": "French Restaurant"
    },
    {
        "id": "4e250954483bbcc48dc19210",
        "name": "Amuse",
        "lat": 22.336566510891945,
        "lng": 114.14607169124224,
        "address": [
            "G/F 909 Cheung Sha Wan Road",
            "Kowloon City",
            "香港"
        ],
        "city": "九龍",
        "state": "Kowloon City",
        "categories_id": "4bf58dd8d48988d10c941735",
        "categories_name": "French Restaurant"
    },
    {
        "id": "4c2703003703d13a596da636",
        "name": "agnès b. LE PAIN GRILLÉ",
        "lat": 22.337168949880823,
        "lng": 114.17500536869154,
        "address": [
            "Shop UG33, Festival Walk, 80 Tat Chee Ave",
            "香港"
        ],
        "city": "九龙塘",
        "state": null,
        "categories_id": "4bf58dd8d48988d10c941735",
        "categories_name": "French Restaurant"
    },
    {
        "id": "5e6ccedfe0708300081e83fc",
        "name": "PANO",
        "lat": 22.299144,
        "lng": 114.156873,
        "address": [
            "Unit 1F-1, 1/F, 24-26 Museum Drive, Art Park, West Kowloon Cultural District",
            "Kowloon",
            "香港"
        ],
        "city": "West Kowloon",
        "state": "Kowloon",
        "categories_id": "4bf58dd8d48988d10c941735",
        "categories_name": "French Restaurant"
    },
    {
        "id": "4ba32c4af964a520a02e38e3",
        "name": "Queen’s Café (皇后飯店)",
        "lat": 22.337384778078114,
        "lng": 114.17419652983584,
        "address": [
            "Shop L1-18, Festival Walk, 80 Tat Chee Ave",
            "香港"
        ],
        "city": "九龙塘",
        "state": null,
        "categories_id": "4bf58dd8d48988d16d941735",
        "categories_name": "Café"
    },
    {
        "id": "4d57d12c1901224b5d5183a6",
        "name": "Dessert Garden (甜品莊)",
        "lat": 22.353520187035688,
        "lng": 114.10898554919967,
        "address": [
            "Shop G32, Greenfield Garden, 1 Fung Shue Wo Rd",
            "香港"
        ],
        "city": "青衣",
        "state": null,
        "categories_id": "4bf58dd8d48988d1d0941735",
        "categories_name": "Dessert Shop"
    },
    {
        "id": "583fbfd284677a070e955e9e",
        "name": "Le Pan",
        "lat": 22.325643580352907,
        "lng": 114.20688271522522,
        "address": [
            "G/F, Goldin Financial Global Centre, 17 Kai Cheung Road",
            "Kowloon",
            "香港"
        ],
        "city": "Kowloon Bay",
        "state": "Kowloon",
        "categories_id": "4bf58dd8d48988d10c941735",
        "categories_name": "French Restaurant"
    },
    {
        "id": "4d4f6130e0275481cd5196b6",
        "name": "Délifrance",
        "lat": 22.37942162208788,
        "lng": 114.18717559337766,
        "address": [
            "Shop 65, 3/F, Hilton Centre, 3 Sha Tin Centre St.",
            "沙田區",
            "香港"
        ],
        "city": "Shatin",
        "state": "沙田區",
        "categories_id": "4bf58dd8d48988d16d941735",
        "categories_name": "Café"
    },
    {
        "id": "4ebd04f202d5e32b7bab6d7a",
        "name": "BO-LO'GNE Café (博洛尼亞)",
        "lat": 22.38193276798146,
        "lng": 114.1897289909843,
        "address": [
            "Shop 112, 1/F, New Town Plaza 1, 18 Sha Tin Centre St",
            "沙田區",
            "香港"
        ],
        "city": "Shatin",
        "state": "沙田區",
        "categories_id": "4bf58dd8d48988d111941735",
        "categories_name": "Japanese Restaurant"
    },
    {
        "id": "4bc9d3ad0687ef3b0287dacc",
        "name": "Regal Riverside Hotel (麗豪酒店)",
        "lat": 22.38237657283878,
        "lng": 114.19644788668712,
        "address": [
            "34-36 Tai Chung Kiu Rd",
            "沙田區",
            "香港"
        ],
        "city": "Shatin",
        "state": "沙田區",
        "categories_id": "4bf58dd8d48988d1fa931735",
        "categories_name": "Hotel"
    },
    {
        "id": "4b6ffa82f964a5201b022de3",
        "name": "Circleclub Cuisine (圓華薈廚)",
        "lat": 22.367552207107043,
        "lng": 114.09242495853272,
        "address": [
            "103-123 Castle Peak Rd, Ting Kau",
            "香港"
        ],
        "city": "Yau Kom Tau",
        "state": null,
        "categories_id": "4bf58dd8d48988d10c941735",
        "categories_name": "French Restaurant"
    },
    {
        "id": "4ca8116114c3370429acd03b",
        "name": "Marion Crepes",
        "lat": 22.357259772643456,
        "lng": 114.1270923614502,
        "address": [
            "223 Hing Fong Rd. (1/F, Metroplaza)",
            "Hong Kong",
            "香港"
        ],
        "city": "Kwai Fong",
        "state": "Hong Kong",
        "categories_id": "4bf58dd8d48988d10c941735",
        "categories_name": "French Restaurant"
    },
    {
        "id": "597493534420d810a5f30b75",
        "name": "Paul Lafayet",
        "lat": 22.35641,
        "lng": 114.128087,
        "address": [
            "Shop 296A, 2/F, Metroplaza, 223 Hing Fong Rd",
            "香港"
        ],
        "city": "Kwai Fong",
        "state": null,
        "categories_id": "4bf58dd8d48988d10c941735",
        "categories_name": "French Restaurant"
    },
    {
        "id": "5451ce22498eb939ed9ff781",
        "name": "ZEN26 Workshop",
        "lat": 22.37283274912938,
        "lng": 114.10742318540345,
        "address": [
            "D1, 26/F (3 Hoi Shing Road)",
            "NT",
            "香港"
        ],
        "city": "Tsuen Wan",
        "state": "NT",
        "categories_id": "4bf58dd8d48988d10c941735",
        "categories_name": "French Restaurant"
    },
    {
        "id": "4e328f8e1520ec976cc8d2b7",
        "name": "Petit Bristol 法國小廚",
        "lat": 22.372266518281982,
        "lng": 114.1174042224884,
        "address": [
            "8 Shiu Wo St., Tsuen Wan (Chuen Lung St.)",
            "Tsuen Wan District",
            "香港"
        ],
        "city": "Tsuen Wan",
        "state": "Tsuen Wan District",
        "categories_id": "4bf58dd8d48988d10c941735",
        "categories_name": "French Restaurant"
    },
    {
        "id": "5cf20ed23e6741002c8037c8",
        "name": "House Of Joy",
        "lat": 22.337814,
        "lng": 114.142473,
        "address": [
            "Block H, Jao Tsung-I Academy (800 Castle Peak Road)",
            "Kowloon",
            "香港"
        ],
        "city": "Lai Chi Kok",
        "state": "Kowloon",
        "categories_id": "4bf58dd8d48988d10c941735",
        "categories_name": "French Restaurant"
    },
    {
        "id": "55eeb966498e6eaf332767c2",
        "name": "Oui Oui Bistro",
        "lat": 22.339192,
        "lng": 114.153837,
        "address": [
            "Shop A, G/F, Easey Building, 512-518 Fuk Wing St",
            "512-518 Fuk Wing Street",
            "香港"
        ],
        "city": "Cheung Sha Wan",
        "state": "512-518 Fuk Wing Street",
        "categories_id": "4bf58dd8d48988d10c941735",
        "categories_name": "French Restaurant"
    },
    {
        "id": "5bcc5948a35f460030b10618",
        "name": "La Crusine (越法薈)",
        "lat": 22.332507,
        "lng": 114.161951,
        "address": [
            "118 Fuk Wing St",
            "KLN",
            "香港"
        ],
        "state": "KLN",
        "categories_id": "4bf58dd8d48988d10c941735",
        "categories_name": "French Restaurant"
    },
    {
        "id": "5b0831c61f74400039c5421d",
        "name": "Paris 18 Oyster Bar & Grill",
        "lat": 22.32197267052768,
        "lng": 114.16176460683346,
        "address": [
            "G/F, 6 Tai Tsun St",
            "香港"
        ],
        "state": null,
        "categories_id": "4bf58dd8d48988d10c941735",
        "categories_name": "French Restaurant"
    },
    {
        "id": "59bdfb8c4b78c5276f21ea54",
        "name": "Brioche Dorée (法味朵風)",
        "lat": 22.320831,
        "lng": 114.16329,
        "address": [
            "G07-08, G/F, Park Summit, 88 Beech St",
            "香港"
        ],
        "city": "大角咀",
        "state": null,
        "categories_id": "4bf58dd8d48988d10c941735",
        "categories_name": "French Restaurant"
    },
    {
        "id": "4cb84acbc7228cfae6ac06ce",
        "name": "La Bristol (法國飯店)",
        "lat": 22.3716899116022,
        "lng": 113.99247819699187,
        "address": [
            "Shop R5, G/F, Marina Magic Shopping Mall",
            "屯門區",
            "香港"
        ],
        "city": "屯門",
        "state": "屯門區",
        "categories_id": "4bf58dd8d48988d10c941735",
        "categories_name": "French Restaurant"
    },
    {
        "id": "4d984db2daec224bda9b453e",
        "name": "Le Café Du Mont Blanc (法國雪山咖啡)",
        "lat": 22.441410757084295,
        "lng": 114.02942473145094,
        "address": [
            "No 56, Block C, Manhattan Plaza",
            "Yuen Long District",
            "香港"
        ],
        "city": "Yuen Long",
        "state": "Yuen Long District",
        "categories_id": "4bf58dd8d48988d10c941735",
        "categories_name": "French Restaurant"
    },
    {
        "id": "4ff42c3ae4b024f558a8884a",
        "name": "frankie's",
        "lat": 22.51148892525946,
        "lng": 114.04239346149748,
        "address": [
            "中国"
        ],
        "state": null,
        "categories_id": "4bf58dd8d48988d116941735",
        "categories_name": "Bar"
    },
    {
        "id": "4ff6d986e4b0e8d00d5e5833",
        "name": "La Maison",
        "lat": 22.48771580243508,
        "lng": 113.91603889940554,
        "address": [
            "Wan hai lu",
            "深圳市",
            "广东",
            "中国"
        ],
        "city": "深圳市",
        "state": "广东",
        "categories_id": "4bf58dd8d48988d10c941735",
        "categories_name": "French Restaurant"
    },
    {
        "id": "55a1f303498edc8d6adf2127",
        "name": "SHARK•Fine Wine & Dine",
        "lat": 22.48643092252194,
        "lng": 113.91052654910327,
        "address": [
            "West side of Bar Street,  Sea World Square,  Shekou",
            "深圳市",
            "广东",
            "中国"
        ],
        "city": "深圳市",
        "state": "广东",
        "categories_id": "4bf58dd8d48988d10c941735",
        "categories_name": "French Restaurant"
    },
    {
        "id": "4b68317cf964a520426b2be3",
        "name": "X-Ta-Sea (海洋之心西餐酒吧)",
        "lat": 22.486462218907015,
        "lng": 113.91174025064447,
        "address": [
            "Seaworld",
            "深圳市",
            "广东, 518000",
            "中国"
        ],
        "city": "深圳市",
        "state": "广东",
        "categories_id": "4bf58dd8d48988d14e941735",
        "categories_name": "American Restaurant"
    },
    {
        "id": "4bb8583153649c74c7f646fb",
        "name": "Starbucks (星巴克)",
        "lat": 22.48674461492425,
        "lng": 113.9109189097782,
        "address": [
            "Shop 113, Nanshan Hotel, 32 Taizi Rd., Sea World Shekou (海上世界店)",
            "深圳市",
            "广东",
            "中国"
        ],
        "city": "深圳市",
        "state": "广东",
        "categories_id": "4bf58dd8d48988d1e0931735",
        "categories_name": "Coffee Shop"
    },
    {
        "id": "5136cae3e4b01ca5ee2260c0",
        "name": "The Snake Pit",
        "lat": 22.48647001439178,
        "lng": 113.91311913728714,
        "address": [
            "Shop 20, Nanhai Rose Garden 2, Shekou, Shenzhen",
            "蛇口",
            "广东, 518067",
            "中国"
        ],
        "city": "蛇口",
        "state": "广东",
        "categories_id": "4bf58dd8d48988d11b941735",
        "categories_name": "Pub"
    },
    {
        "id": "55719ec0498ed29ef94dfa8b",
        "name": "Little Onion 小洋蔥",
        "lat": 22.292197035309844,
        "lng": 113.9498795691267,
        "address": [
            "Shop 29-30, Podium 1/F, Caribbean Square, 1 Kin Tung Rd",
            "香港"
        ],
        "city": "San Tung Chung Hang",
        "state": null,
        "categories_id": "4bf58dd8d48988d1ca941735",
        "categories_name": "Pizza Place"
    },
    {
        "id": "4cd22fa6b5ba236af0652c6e",
        "name": "Fuzon Hotel (金銮富众酒店)",
        "lat": 22.49032839513594,
        "lng": 113.9144363485579,
        "address": [
            "南山区蛇口康乐路1号",
            "深圳市",
            "广东",
            "中国"
        ],
        "city": "深圳市",
        "state": "广东",
        "categories_id": "4bf58dd8d48988d1fa931735",
        "categories_name": "Hotel"
    },
    {
        "id": "4d8ad6b94757721e95dcbf69",
        "name": "Romas",
        "lat": 22.487145723424383,
        "lng": 113.90902859183169,
        "address": [
            "中国"
        ],
        "state": null,
        "categories_id": "4bf58dd8d48988d110941735",
        "categories_name": "Italian Restaurant"
    },
    {
        "id": "4d78c52e109eb1f7d55e5406",
        "name": "肥仔海鲜大排档",
        "lat": 22.52584841346962,
        "lng": 114.05836211750456,
        "address": [
            "福田皇岗村皇兴大厦",
            "深圳市",
            "广东",
            "中国"
        ],
        "city": "深圳市",
        "state": "广东",
        "categories_id": "4bf58dd8d48988d1ce941735",
        "categories_name": "Seafood Restaurant"
    },
    {
        "id": "52cc0cf1498e8d62a00a6961",
        "name": "LES Duos",
        "lat": 22.528282195543937,
        "lng": 113.98609371094985,
        "address": [
            "LD 白石路东8号欢乐海岸曲水湾12栋B (OCT BAY)",
            "深圳市",
            "广东",
            "中国"
        ],
        "city": "深圳市",
        "state": "广东",
        "categories_id": "4bf58dd8d48988d10c941735",
        "categories_name": "French Restaurant"
    },
    {
        "id": "512612f1e4b09663e93bc1e0",
        "name": "Pipette",
        "lat": 22.535033251676506,
        "lng": 113.9799779162348,
        "address": [
            "中国"
        ],
        "state": null,
        "categories_id": "4bf58dd8d48988d10c941735",
        "categories_name": "French Restaurant"
    },
    {
        "id": "555297b3498e32534dd4a675",
        "name": "Aix Arôme Café (埃克斯咖啡)",
        "lat": 22.540356654060403,
        "lng": 113.96989510567288,
        "address": [
            "南山区深南大道9028号益田假日广场B1楼59号",
            "深圳市",
            "广东",
            "中国"
        ],
        "city": "深圳市",
        "state": "广东",
        "categories_id": "4bf58dd8d48988d16d941735",
        "categories_name": "Café"
    },
    {
        "id": "54f30900498e34a1591e582d",
        "name": "SHARK • Fine Wine & Dine",
        "lat": 22.537916606096417,
        "lng": 114.04962760053012,
        "address": [
            "福华路转中心二路购物公园B区1楼133号",
            "深圳市",
            "广东",
            "中国"
        ],
        "city": "深圳市",
        "state": "广东",
        "categories_id": "4bf58dd8d48988d1ce941735",
        "categories_name": "Seafood Restaurant"
    },
    {
        "id": "4d8ded696174a0938351bbe3",
        "name": "LE BISTRO Restaurant Grill & Bar",
        "lat": 22.538732300000003,
        "lng": 114.048584,
        "address": [
            "中国"
        ],
        "state": null,
        "categories_id": "4bf58dd8d48988d10c941735",
        "categories_name": "French Restaurant"
    },
    {
        "id": "4d63c4f979deb1f7210a1e11",
        "name": "Belle-Vue Grill",
        "lat": 22.54011378444482,
        "lng": 114.10619552467772,
        "address": [
            "37/F, Grand Hyatt Shenzhen, 1881 Baoan Nan Rd, Luohu District",
            "深圳市",
            "广东, 518001",
            "中国"
        ],
        "city": "深圳市",
        "state": "广东",
        "categories_id": "4bf58dd8d48988d10c941735",
        "categories_name": "French Restaurant"
    },
    {
        "id": "4cff8dd7ffcea143440a2891",
        "name": "simplylife (星美乐)",
        "lat": 22.54013819104682,
        "lng": 114.1056553332194,
        "address": [
            "罗湖区华润中心万象城S169号",
            "深圳市",
            "广东, 518001",
            "中国"
        ],
        "city": "深圳市",
        "state": "广东",
        "categories_id": "4bf58dd8d48988d16d941735",
        "categories_name": "Café"
    },
    {
        "id": "4d158eb3b15cb1f7e801a921",
        "name": "Centurion Restaurant (百俊廳)",
        "lat": 22.406782599011212,
        "lng": 114.20970897270796,
        "address": [
            "Hong Kong Jockey Clubhouse (5/F)",
            "沙田區",
            "香港"
        ],
        "city": "Shatin",
        "state": "沙田區",
        "categories_id": "4bf58dd8d48988d10c941735",
        "categories_name": "French Restaurant"
    },
    {
        "id": "4d4cd04272eba143f4c23b12",
        "name": "I Do - French Restaurent",
        "lat": 22.4255052816562,
        "lng": 114.23126851249656,
        "address": [
            "香港"
        ],
        "state": null,
        "categories_id": "4bf58dd8d48988d10c941735",
        "categories_name": "French Restaurant"
    },
    {
        "id": "4d89535c033fcbff58015d2c",
        "name": "One Thirty-One",
        "lat": 22.428925825796842,
        "lng": 114.27006647255953,
        "address": [
            "131 Tseng Tau Village",
            "香港"
        ],
        "city": "Shap Sze Heung",
        "state": null,
        "categories_id": "4bf58dd8d48988d10c941735",
        "categories_name": "French Restaurant"
    },
    {
        "id": "5419abab498e561ee5bb8a05",
        "name": "Chez Raymond de Paris",
        "lat": 22.381332,
        "lng": 114.27005,
        "address": [
            "183D Po Tung Rd",
            "Sai Kung District",
            "香港"
        ],
        "city": "西貢",
        "state": "Sai Kung District",
        "categories_id": "4bf58dd8d48988d10c941735",
        "categories_name": "French Restaurant"
    }
]
