[
    {
        "id": "563710fd498ee35b3201ca29",
        "name": "Fresca",
        "lat": 22.282595,
        "lng": 114.152942,
        "address": [
            "54A Hollywood Road, Central",
            "香港"
        ],
        "city": "香港",
        "state": null,
        "categories_id": "4bf58dd8d48988d1d3941735",
        "categories_name": "Vegetarian / Vegan Restaurant"
    },
    {
        "id": "504ecc4ae4b05f02332470f8",
        "name": "Bijas Vegetarian (Bijas 一念素食)",
        "lat": 22.283820759499438,
        "lng": 114.13409972423044,
        "address": [
            "G/F, Run Run Shaw Tower, The University of Hong Kong",
            "香港"
        ],
        "city": "薄扶林",
        "state": null,
        "categories_id": "4bf58dd8d48988d1d3941735",
        "categories_name": "Vegetarian / Vegan Restaurant"
    },
    {
        "id": "4f56e921e4b01d8a92a28b70",
        "name": "Mana! Fast Slow Food",
        "lat": 22.282920728990614,
        "lng": 114.1546514657711,
        "address": [
            "92 Wellington St (btwn Cochrain & Pottinger St)",
            "中西區",
            "香港"
        ],
        "city": "中環",
        "state": "中西區",
        "categories_id": "4bf58dd8d48988d1d3941735",
        "categories_name": "Vegetarian / Vegan Restaurant"
    },
    {
        "id": "5b925a1016ef670039f4fe8c",
        "name": "POP Vegan",
        "lat": 22.281679,
        "lng": 114.152598,
        "address": [
            "1/F, 28 Elgin Street, SOHO",
            "香港"
        ],
        "city": "香港",
        "state": null,
        "categories_id": "4bf58dd8d48988d1d3941735",
        "categories_name": "Vegetarian / Vegan Restaurant"
    },
    {
        "id": "4b4aef6af964a520fb8f26e3",
        "name": "Pure Veggie House (心齋)",
        "lat": 22.27639647392571,
        "lng": 114.15610045194626,
        "address": [
            "3/F, Coda Plaza, 51 Garden Rd (at MacDonnell Rd)",
            "香港"
        ],
        "city": "Mid-levels",
        "state": null,
        "categories_id": "4bf58dd8d48988d1d3941735",
        "categories_name": "Vegetarian / Vegan Restaurant"
    },
    {
        "id": "5408134f498ee1127c39b93a",
        "name": "Green Veggie (天然齋)",
        "lat": 22.286338,
        "lng": 114.151863,
        "address": [
            "1A&B, Finance Building, 254 Des Vouex Rd C",
            "香港"
        ],
        "city": "Sheung Wan",
        "state": null,
        "categories_id": "4bf58dd8d48988d1d3941735",
        "categories_name": "Vegetarian / Vegan Restaurant"
    },
    {
        "id": "4b45c878f964a520471026e3",
        "name": "Harvester (哈佛提素)",
        "lat": 22.287199876373794,
        "lng": 114.15022359860683,
        "address": [
            "Shop A-B, Yardley Commercial Bldg, New Market St",
            "香港"
        ],
        "city": "Sheung Wan",
        "state": null,
        "categories_id": "4bf58dd8d48988d1d3941735",
        "categories_name": "Vegetarian / Vegan Restaurant"
    },
    {
        "id": "4b5b248af964a5202fe628e3",
        "name": "Veggie SF Café",
        "lat": 22.282284169331767,
        "lng": 114.15576781699318,
        "address": [
            "10/F, Stanley 11, 11 Stanley St",
            "香港"
        ],
        "city": "香港",
        "state": null,
        "categories_id": "4bf58dd8d48988d1d3941735",
        "categories_name": "Vegetarian / Vegan Restaurant"
    },
    {
        "id": "51e281f0498e5dc07d66de35",
        "name": "Aberdeen Street Organic Restaurant",
        "lat": 22.282703157045386,
        "lng": 114.15155410766602,
        "address": [
            "Shop 1, UG/F, King Ho Bldg, 41-49 Aberdeen St",
            "中西區",
            "香港"
        ],
        "city": "Hong Kong",
        "state": "中西區",
        "categories_id": "4bf58dd8d48988d1d3941735",
        "categories_name": "Vegetarian / Vegan Restaurant"
    },
    {
        "id": "57ff5404d67cf60c770ec10b",
        "name": "Green Common",
        "lat": 22.28139709780021,
        "lng": 114.15874261485251,
        "address": [
            "Shop B2, Basement 1, Alexandra House, 16-20 Chater Rd",
            "香港"
        ],
        "city": "中区",
        "state": null,
        "categories_id": "4bf58dd8d48988d1d3941735",
        "categories_name": "Vegetarian / Vegan Restaurant"
    },
    {
        "id": "5c419834625a66002cefbfa0",
        "name": "VEDA",
        "lat": 22.280269,
        "lng": 114.154619,
        "address": [
            "2 Arbuthnot Road",
            "中西區",
            "香港"
        ],
        "city": "中環",
        "state": "中西區",
        "categories_id": "4bf58dd8d48988d1d3941735",
        "categories_name": "Vegetarian / Vegan Restaurant"
    },
    {
        "id": "55f766ca498ecf32a7ec81a5",
        "name": "Green Common Nan Fung Place",
        "lat": 22.285890292390153,
        "lng": 114.15402233425202,
        "address": [
            "Shop 1, Nan Fung Place, 173 Des Voeux Road C, Central",
            "香港"
        ],
        "city": "香港",
        "state": null,
        "categories_id": "4bf58dd8d48988d1d3941735",
        "categories_name": "Vegetarian / Vegan Restaurant"
    },
    {
        "id": "5073bae2e4b04872e9a6c6ba",
        "name": "Po Lin Yuen Vegetarian Food (寶蓮苑素食)",
        "lat": 22.286425842639883,
        "lng": 114.13457898909527,
        "address": [
            "606 Queen's Rd W",
            "香港"
        ],
        "city": "Western District",
        "state": null,
        "categories_id": "4bf58dd8d48988d1d3941735",
        "categories_name": "Vegetarian / Vegan Restaurant"
    },
    {
        "id": "56ece80acd10365741ed47c4",
        "name": "Knead",
        "lat": 22.284953,
        "lng": 114.152233,
        "address": [
            "28 Jervois St.",
            "香港"
        ],
        "state": null,
        "categories_id": "4bf58dd8d48988d1c5941735",
        "categories_name": "Sandwich Place"
    },
    {
        "id": "54fbf722498e1cb9a3433585",
        "name": "Mana! Raw",
        "lat": 22.283624328254213,
        "lng": 114.1541317164651,
        "address": [
            "97 Wellington Street",
            "香港"
        ],
        "city": "香港",
        "state": null,
        "categories_id": "4bf58dd8d48988d1d3941735",
        "categories_name": "Vegetarian / Vegan Restaurant"
    },
    {
        "id": "4f4a0f4fe4b082dc57fbfb02",
        "name": "Po Lin Yuen (寶蓮苑)",
        "lat": 22.286846,
        "lng": 114.14188,
        "address": [
            "G/F, 308 Queen's Rd W",
            "香港"
        ],
        "city": "香港",
        "state": null,
        "categories_id": "4bf58dd8d48988d1d3941735",
        "categories_name": "Vegetarian / Vegan Restaurant"
    },
    {
        "id": "53dddc07498eba44bea621f0",
        "name": "Anything But Salads",
        "lat": 22.284471025755593,
        "lng": 114.1486759026162,
        "address": [
            "Shop B, G/F, 14 Tai Ping Shan Street",
            "香港"
        ],
        "city": "香港",
        "state": null,
        "categories_id": "4bf58dd8d48988d1d3941735",
        "categories_name": "Vegetarian / Vegan Restaurant"
    },
    {
        "id": "51bfe2c1498e19c81ea6f29b",
        "name": "Veggies Sky (寶彩軒)",
        "lat": 22.286690765821074,
        "lng": 114.15152668511038,
        "address": [
            "2/F 279 Des Voeux Road C",
            "香港"
        ],
        "city": "香港",
        "state": null,
        "categories_id": "4bf58dd8d48988d1d3941735",
        "categories_name": "Vegetarian / Vegan Restaurant"
    },
    {
        "id": "4d11f953058fa35d5378239f",
        "name": "Gingko House 銀杏館",
        "lat": 22.28424195346793,
        "lng": 114.15216622171911,
        "address": [
            "G/F, 44 Gough St",
            "中西區",
            "香港"
        ],
        "city": "中環",
        "state": "中西區",
        "categories_id": "4bf58dd8d48988d1d3941735",
        "categories_name": "Vegetarian / Vegan Restaurant"
    },
    {
        "id": "5b1874ff3e70ff0024a35f8d",
        "name": "Kind Kitchen by Green Common",
        "lat": 22.28599,
        "lng": 114.154375,
        "address": [
            "Shop 1, 1/F, Nan Fung Place, 173 Des Voeux Rd C",
            "香港"
        ],
        "city": "中区",
        "state": null,
        "categories_id": "4bf58dd8d48988d1d3941735",
        "categories_name": "Vegetarian / Vegan Restaurant"
    },
    {
        "id": "5ec2252bbd692800083fb9d8",
        "name": "Mana!",
        "lat": 22.281666,
        "lng": 114.1531,
        "address": [
            "8 Staunton Street (Shelley Street)",
            "Hong Kong Island",
            "香港"
        ],
        "state": "Hong Kong Island",
        "categories_id": "4bf58dd8d48988d1d3941735",
        "categories_name": "Vegetarian / Vegan Restaurant"
    },
    {
        "id": "5df4e22e9d0cab0007ad8cbe",
        "name": "Miss Lee",
        "lat": 22.284871,
        "lng": 114.153238,
        "address": [
            "198 Wellington",
            "中西區",
            "香港"
        ],
        "city": "中環",
        "state": "中西區",
        "categories_id": "4bf58dd8d48988d1d3941735",
        "categories_name": "Vegetarian / Vegan Restaurant"
    },
    {
        "id": "5ebb75153c19fe0008a4f4cf",
        "name": "Ahimsa Buffet (無肉食)",
        "lat": 22.283233,
        "lng": 114.153652,
        "address": [
            "Shop 5, G/F, My Central, 23 Graham St",
            "中西區",
            "香港"
        ],
        "city": "中環",
        "state": "中西區",
        "categories_id": "4bf58dd8d48988d1d3941735",
        "categories_name": "Vegetarian / Vegan Restaurant"
    },
    {
        "id": "4f924473e4b0346090a57856",
        "name": "Fook Luk Sau Vegetarian Restaurant (福祿壽健康素食)",
        "lat": 22.284490190073942,
        "lng": 114.15534681568423,
        "address": [
            "8 Tit Hong Ln (at Jubilee St)",
            "中西區",
            "香港"
        ],
        "city": "中環",
        "state": "中西區",
        "categories_id": "4bf58dd8d48988d1d3941735",
        "categories_name": "Vegetarian / Vegan Restaurant"
    },
    {
        "id": "4b691504f964a520b9982be3",
        "name": "Solands",
        "lat": 22.28465712830892,
        "lng": 114.15393019846351,
        "address": [
            "6 Gilman's Bazaar",
            "中西區",
            "香港"
        ],
        "city": "中環",
        "state": "中西區",
        "categories_id": "4bf58dd8d48988d1d3941735",
        "categories_name": "Vegetarian / Vegan Restaurant"
    },
    {
        "id": "4be79deaee96c928ae36fdbf",
        "name": "Fung Ying Seen Koon Vegetarian Kitchen (蓬瀛仙館齋廚)",
        "lat": 22.278543160106373,
        "lng": 114.15374441226405,
        "address": [
            "66 Pak Wo Rd",
            "NT",
            "香港"
        ],
        "city": "Fanling",
        "state": "NT",
        "categories_id": "4bf58dd8d48988d1d3941735",
        "categories_name": "Vegetarian / Vegan Restaurant"
    },
    {
        "id": "5305caeb498e391fd4b9caf0",
        "name": "Mott 32 (卅二公館)",
        "lat": 22.280285752897708,
        "lng": 114.1590803861618,
        "address": [
            "B/F, Standard Chartered Bank Building, 4-4A Des Voeux Rd C",
            "香港"
        ],
        "city": "香港",
        "state": null,
        "categories_id": "4bf58dd8d48988d1f5931735",
        "categories_name": "Dim Sum Restaurant"
    },
    {
        "id": "5d6f9ca6228cfc00080b5db0",
        "name": "Treehouse",
        "lat": 22.282225,
        "lng": 114.154177,
        "address": [
            "Shop 1, G/F, H Code, 45 Pottinger Street",
            "中西區",
            "香港"
        ],
        "city": "中環",
        "state": "中西區",
        "categories_id": "4bf58dd8d48988d1d3941735",
        "categories_name": "Vegetarian / Vegan Restaurant"
    },
    {
        "id": "5af66e61cad1b6002c17073b",
        "name": "Mirror & Vegan Concept",
        "lat": 22.283742,
        "lng": 114.15462,
        "address": [
            "118 Queen’s Road Central, 9/F",
            "香港"
        ],
        "city": "香港",
        "state": null,
        "categories_id": "4bf58dd8d48988d1d3941735",
        "categories_name": "Vegetarian / Vegan Restaurant"
    },
    {
        "id": "4d65d0774bfb2d431bf238b4",
        "name": "Happy Vegetarian Restaurant",
        "lat": 22.28269322939308,
        "lng": 114.15501952171326,
        "address": [
            "53 Wellington Street (Pottinger Street)",
            "Hong Kong SAR",
            "香港"
        ],
        "city": "Hong Kong",
        "state": "Hong Kong SAR",
        "categories_id": "4bf58dd8d48988d1d3941735",
        "categories_name": "Vegetarian / Vegan Restaurant"
    },
    {
        "id": "542163d3498e989575e4ca26",
        "name": "BÊP Vietnamese Kitchen",
        "lat": 22.28288984613509,
        "lng": 114.15468851386518,
        "address": [
            "88 Wellington St, Central",
            "香港"
        ],
        "state": null,
        "categories_id": "4bf58dd8d48988d14a941735",
        "categories_name": "Vietnamese Restaurant"
    },
    {
        "id": "4f4202fbe4b0bf54ca9d3959",
        "name": "Mix",
        "lat": 22.280630893721405,
        "lng": 114.15766912923672,
        "address": [
            "Three Sixty, 4/F, The Landmark, Central",
            "香港"
        ],
        "state": null,
        "categories_id": "4bf58dd8d48988d1d3941735",
        "categories_name": "Vegetarian / Vegan Restaurant"
    },
    {
        "id": "57289010498ec8030daf2828",
        "name": "HealthWorks (健康工房)",
        "lat": 22.282534,
        "lng": 114.1575,
        "address": [
            "W7, Central MTR Station, Central",
            "香港"
        ],
        "city": "中区",
        "state": null,
        "categories_id": "4bf58dd8d48988d1dd931735",
        "categories_name": "Soup Place"
    },
    {
        "id": "4b0588d0f964a52038db22e3",
        "name": "Dragon-i",
        "lat": 22.280476,
        "lng": 114.154681,
        "address": [
            "60 Wyndham St",
            "中西區",
            "香港"
        ],
        "city": "中環",
        "state": "中西區",
        "categories_id": "4bf58dd8d48988d11f941735",
        "categories_name": "Nightclub"
    },
    {
        "id": "5d36a4496aa433000859c2ad",
        "name": "Mana! Starstreet",
        "lat": 22.277509,
        "lng": 114.168099,
        "address": [
            "G/F, Generali Tower (8-10 Queen’s Road East)",
            "灣仔區",
            "香港"
        ],
        "city": "灣仔",
        "state": "灣仔區",
        "categories_id": "4bf58dd8d48988d1d3941735",
        "categories_name": "Vegetarian / Vegan Restaurant"
    },
    {
        "id": "5bdba7c53af988002c8ada87",
        "name": "nood food",
        "lat": 22.276739,
        "lng": 114.168355,
        "address": [
            "3-19 Wing Fung Street (Queens Road East)",
            "灣仔區",
            "香港"
        ],
        "city": "灣仔",
        "state": "灣仔區",
        "categories_id": "4bf58dd8d48988d1d3941735",
        "categories_name": "Vegetarian / Vegan Restaurant"
    },
    {
        "id": "5a4c69702e26801145a48969",
        "name": "Supabowl",
        "lat": 22.275379,
        "lng": 114.171572,
        "address": [
            "4 Swatow Street",
            "香港"
        ],
        "city": "香港",
        "state": null,
        "categories_id": "4bf58dd8d48988d1d3941735",
        "categories_name": "Vegetarian / Vegan Restaurant"
    },
    {
        "id": "4f895f71e4b0ddfd82225528",
        "name": "Liza Veggies (麗姐廚房)",
        "lat": 22.277164850319206,
        "lng": 114.17403775536403,
        "address": [
            "2/F, Harvard Commercial Bldg, 105-111 Thomson Rd",
            "灣仔區",
            "香港"
        ],
        "city": "灣仔",
        "state": "灣仔區",
        "categories_id": "4bf58dd8d48988d1d3941735",
        "categories_name": "Vegetarian / Vegan Restaurant"
    },
    {
        "id": "548b0aaa498eb8abae3b066d",
        "name": "Isoya Japanese Vegetarian Restaurant (居素屋日本野菜料理)",
        "lat": 22.276291,
        "lng": 114.174812,
        "address": [
            "9/F, 83 Wan Chai Rd",
            "香港"
        ],
        "city": "香港",
        "state": null,
        "categories_id": "4bf58dd8d48988d1d3941735",
        "categories_name": "Vegetarian / Vegan Restaurant"
    },
    {
        "id": "565d21b9498ef4873e2ac1e8",
        "name": "Green Veggie (天然齋)",
        "lat": 22.279063,
        "lng": 114.176971,
        "address": [
            "Shop 11-12, G/F, Tonnochy Towers, 254-272 Jaffe Rd, Wan Chai, Hong Kong",
            "香港"
        ],
        "city": "香港",
        "state": null,
        "categories_id": "4bf58dd8d48988d1d3941735",
        "categories_name": "Vegetarian / Vegan Restaurant"
    },
    {
        "id": "4b0588d9f964a520f2dc22e3",
        "name": "Khana Khazana",
        "lat": 22.27874367703502,
        "lng": 114.17177669523525,
        "address": [
            "20 Luard Rd.",
            "灣仔區",
            "香港"
        ],
        "city": "灣仔",
        "state": "灣仔區",
        "categories_id": "4bf58dd8d48988d1d3941735",
        "categories_name": "Vegetarian / Vegan Restaurant"
    },
    {
        "id": "4b8e5c99f964a520c41e33e3",
        "name": "Loving Hut (愛家)",
        "lat": 22.276615,
        "lng": 114.175154,
        "address": [
            "2/F, Luen Tai Bldg, 93-99 Wan Chai Rd",
            "灣仔區",
            "香港"
        ],
        "city": "灣仔",
        "state": "灣仔區",
        "categories_id": "4bf58dd8d48988d1d3941735",
        "categories_name": "Vegetarian / Vegan Restaurant"
    },
    {
        "id": "53438ed6498e8778584869ab",
        "name": "OVO Café",
        "lat": 22.27451549480003,
        "lng": 114.17430701438009,
        "address": [
            "1 Wanchai Rd (at Queen's Rd E)",
            "灣仔區",
            "香港"
        ],
        "city": "灣仔",
        "state": "灣仔區",
        "categories_id": "4bf58dd8d48988d1d3941735",
        "categories_name": "Vegetarian / Vegan Restaurant"
    },
    {
        "id": "5850f04decb67e2f6a1584a7",
        "name": "Green Common",
        "lat": 22.29507098699072,
        "lng": 114.16813087495863,
        "address": [
            "Shop OTG61, G/F, Ocean Terminal, Harbour City, Tsim Sha Tsui, Hong Kong",
            "Kowloon City",
            "香港"
        ],
        "city": "尖沙咀",
        "state": "Kowloon City",
        "categories_id": "4bf58dd8d48988d1d3941735",
        "categories_name": "Vegetarian / Vegan Restaurant"
    },
    {
        "id": "552de239498e276a3c87022d",
        "name": "Green Common",
        "lat": 22.27468780210272,
        "lng": 114.17268046715796,
        "address": [
            "Shop 1-2, 2/F, QRE Plaza, 202 Queen's Rd E",
            "香港"
        ],
        "city": "香港",
        "state": null,
        "categories_id": "52f2ab2ebcbc57f1066b8b45",
        "categories_name": "Organic Grocery"
    },
    {
        "id": "53561184498e38f66cb9388b",
        "name": "Tallore",
        "lat": 22.275839,
        "lng": 114.171923,
        "address": [
            "Shop D, 7-17 Amoy St",
            "灣仔區",
            "香港"
        ],
        "city": "灣仔",
        "state": "灣仔區",
        "categories_id": "4bf58dd8d48988d1dd931735",
        "categories_name": "Soup Place"
    },
    {
        "id": "4be63b4ad4f7c9b6299c2620",
        "name": "Veggie Palace (貴德宮)",
        "lat": 22.277655636446756,
        "lng": 114.17714007573782,
        "address": [
            "UG/F, Kwong Sang Hong Bldg, 6 Heard St",
            "灣仔區",
            "香港"
        ],
        "city": "灣仔",
        "state": "灣仔區",
        "categories_id": "4bf58dd8d48988d1d3941735",
        "categories_name": "Vegetarian / Vegan Restaurant"
    },
    {
        "id": "4d5bbc2e590b224b46fa986d",
        "name": "Tung Fong Siu Kee Yuen (東方小祇園)",
        "lat": 22.277828334401587,
        "lng": 114.17605737269955,
        "address": [
            "G/F, 241 Hennessy Rd",
            "灣仔區",
            "香港"
        ],
        "city": "灣仔",
        "state": "灣仔區",
        "categories_id": "4bf58dd8d48988d1d3941735",
        "categories_name": "Vegetarian / Vegan Restaurant"
    },
    {
        "id": "5909b69f5d891b38d3ce3601",
        "name": "Oriental Vegetarian 東方素",
        "lat": 22.277861,
        "lng": 114.176257,
        "address": [
            "3/F, 239 Hennessy Rd, Wan Chai, Hong Kong",
            "香港"
        ],
        "city": "香港",
        "state": null,
        "categories_id": "4bf58dd8d48988d1d3941735",
        "categories_name": "Vegetarian / Vegan Restaurant"
    },
    {
        "id": "4bb6c6a5941ad13a4d0220e3",
        "name": "E-Vege Restaurant (茹素食)",
        "lat": 22.277739242962195,
        "lng": 114.17717456817627,
        "address": [
            "Shop G10 and B11-B20, Emperor Group Centre (288 Henessy Road)",
            "灣仔區",
            "香港"
        ],
        "city": "灣仔",
        "state": "灣仔區",
        "categories_id": "4bf58dd8d48988d1d3941735",
        "categories_name": "Vegetarian / Vegan Restaurant"
    },
    {
        "id": "4bc9ae9c937ca593c61ca692",
        "name": "Kan Kee Vegetarian Food (根記健康素食)",
        "lat": 22.278223086070668,
        "lng": 114.18042110571382,
        "address": [
            "Shop 6, 2/F, Bowrington Road Cooked Food Centre, 21 Bowrington Rd",
            "香港"
        ],
        "city": "铜锣湾",
        "state": null,
        "categories_id": "4bf58dd8d48988d1d3941735",
        "categories_name": "Vegetarian / Vegan Restaurant"
    },
    {
        "id": "5494ef39498ec9dc36715394",
        "name": "Changle Vegetarian & Vegan Restaurant (常樂素食)",
        "lat": 22.280259743725537,
        "lng": 114.1819892014692,
        "address": [
            "7/F, The L Square, 459-461 Lockhart Rd",
            "香港"
        ],
        "city": "铜锣湾",
        "state": null,
        "categories_id": "4bf58dd8d48988d1d3941735",
        "categories_name": "Vegetarian / Vegan Restaurant"
    },
    {
        "id": "59b0ae12123a1948eff620e4",
        "name": "Youni",
        "lat": 22.281197,
        "lng": 114.18192,
        "address": [
            "4/F, Elizabeth House, 250-254 Gloucester Road",
            "香港"
        ],
        "city": "香港",
        "state": null,
        "categories_id": "4bf58dd8d48988d1d3941735",
        "categories_name": "Vegetarian / Vegan Restaurant"
    },
    {
        "id": "5d2e6cb1f221540008a832da",
        "name": "Fivelements",
        "lat": 22.278491,
        "lng": 114.18224,
        "address": [
            "13A Times Square",
            "香港"
        ],
        "city": "铜锣湾",
        "state": null,
        "categories_id": "4bf58dd8d48988d102941735",
        "categories_name": "Yoga Studio"
    },
    {
        "id": "4c9648e401dd76b06afec148",
        "name": "Harmony Village (紫來坊)",
        "lat": 22.278989091687112,
        "lng": 114.18524296287706,
        "address": [
            "11/F, Jardine Centre, 50 Jardine's Crescent",
            "香港"
        ],
        "city": "铜锣湾",
        "state": null,
        "categories_id": "4bf58dd8d48988d1d3941735",
        "categories_name": "Vegetarian / Vegan Restaurant"
    },
    {
        "id": "4e54755462e1d184431f3413",
        "name": "Kung Tak Lam Shanghai Vegetarian Cuisine (功德林上海素食)",
        "lat": 22.28193127048372,
        "lng": 114.18391932818072,
        "address": [
            "10/F, World Trade Centre, 280 Gloucester Rd",
            "香港"
        ],
        "city": "铜锣湾",
        "state": null,
        "categories_id": "4bf58dd8d48988d1d3941735",
        "categories_name": "Vegetarian / Vegan Restaurant"
    },
    {
        "id": "4b5d8b82f964a520ee6029e3",
        "name": "Gaia Veggie Shop (大自然素食)",
        "lat": 22.280011851564968,
        "lng": 114.18430838816982,
        "address": [
            "8/F, The Goldmark, 502 Hennessy Rd",
            "香港"
        ],
        "city": "铜锣湾",
        "state": null,
        "categories_id": "4bf58dd8d48988d1d3941735",
        "categories_name": "Vegetarian / Vegan Restaurant"
    },
    {
        "id": "5555a95b498ec2f2655c1efe",
        "name": "Leisurely Veggie (悠蔬食)",
        "lat": 22.27898013529748,
        "lng": 114.18510406159338,
        "address": [
            "25/F, Jardine Center, 50 Jardine's Bazaar",
            "香港"
        ],
        "state": null,
        "categories_id": "4bf58dd8d48988d1d3941735",
        "categories_name": "Vegetarian / Vegan Restaurant"
    },
    {
        "id": "57f63ffd498e8d565bd679e6",
        "name": "nood food",
        "lat": 22.278322,
        "lng": 114.183817,
        "address": [
            "Lee theaters 15/F",
            "香港"
        ],
        "city": "铜锣湾",
        "state": null,
        "categories_id": "4bf58dd8d48988d1d3941735",
        "categories_name": "Vegetarian / Vegan Restaurant"
    },
    {
        "id": "5cfb580ac21cb1002b3a037c",
        "name": "Veggie One (素一)",
        "lat": 22.281229,
        "lng": 114.183832,
        "address": [
            "Shop B04, B/F, Tower 535, 535 Jaffe Rd",
            "香港"
        ],
        "city": "铜锣湾",
        "state": null,
        "categories_id": "4bf58dd8d48988d1d3941735",
        "categories_name": "Vegetarian / Vegan Restaurant"
    },
    {
        "id": "52c41884498eb5592b27224b",
        "name": "Sooo Vegi (素食主意)",
        "lat": 22.288844022546648,
        "lng": 114.19345444026253,
        "address": [
            "Shop A6, Wah Hoi Mansion, 254-280 Electric Rd",
            "香港"
        ],
        "city": "北角",
        "state": null,
        "categories_id": "4bf58dd8d48988d1d3941735",
        "categories_name": "Vegetarian / Vegan Restaurant"
    },
    {
        "id": "524274ea498e9afc1aba08f5",
        "name": "Veggie Spinner",
        "lat": 22.281069739023135,
        "lng": 114.19198118437703,
        "address": [
            "144 Tung Lo Wan Rd",
            "香港"
        ],
        "city": "Tai Hang",
        "state": null,
        "categories_id": "4bf58dd8d48988d1d3941735",
        "categories_name": "Vegetarian / Vegan Restaurant"
    },
    {
        "id": "55e933f7498eb1e241f27320",
        "name": "Ahimsa Buffet (無肉食)",
        "lat": 22.289752320998712,
        "lng": 114.19649640586718,
        "address": [
            "Shop B, G/F, Wah Hai Mansion, 10-16 Fort St",
            "香港"
        ],
        "city": "香港",
        "state": null,
        "categories_id": "4bf58dd8d48988d1d3941735",
        "categories_name": "Vegetarian / Vegan Restaurant"
    },
    {
        "id": "4bff5a5d369476b0c0c28d1f",
        "name": "Three Virtues Vegetarian Restaurant (三德素食館)",
        "lat": 22.291038335644007,
        "lng": 114.19969127966615,
        "address": [
            "1/F, 395 King's Rd",
            "香港"
        ],
        "city": "北角",
        "state": null,
        "categories_id": "4bf58dd8d48988d1d3941735",
        "categories_name": "Vegetarian / Vegan Restaurant"
    },
    {
        "id": "4c11c0e8416620a11ebed9e4",
        "name": "Vegelink (素之樂)",
        "lat": 22.291361747022734,
        "lng": 114.19779161060539,
        "address": [
            "Shop 108, 1/F, Foo Yet Kai Bldg, 52-60A Java Rd",
            "香港"
        ],
        "city": "北角",
        "state": null,
        "categories_id": "4bf58dd8d48988d1d3941735",
        "categories_name": "Vegetarian / Vegan Restaurant"
    },
    {
        "id": "4d0f398ca3d9721ea1d8cdfd",
        "name": "Kam Heung Vegetarian (甘香齋)",
        "lat": 22.287043755802436,
        "lng": 114.1921598568918,
        "address": [
            "Shop D2, G/F, Po Wing Building, 6-16 Shell St",
            "香港"
        ],
        "city": "北角",
        "state": null,
        "categories_id": "4bf58dd8d48988d1d3941735",
        "categories_name": "Vegetarian / Vegan Restaurant"
    },
    {
        "id": "54216901498e35d2705b1acb",
        "name": "Sangeetha",
        "lat": 22.296518,
        "lng": 114.176478,
        "address": [
            "UG 1-5 & 31, Wing On Plaza, 82 Mody Rd",
            "香港"
        ],
        "state": null,
        "categories_id": "4bf58dd8d48988d1d3941735",
        "categories_name": "Vegetarian / Vegan Restaurant"
    },
    {
        "id": "537766e8498e4b0f6f1a5d15",
        "name": "InnoVeggie (素食份子)",
        "lat": 22.289549641097658,
        "lng": 114.19610046203383,
        "address": [
            "G/F, 2-4 Fort St",
            "香港"
        ],
        "city": "香港",
        "state": null,
        "categories_id": "4bf58dd8d48988d1d3941735",
        "categories_name": "Vegetarian / Vegan Restaurant"
    },
    {
        "id": "5f4210647fdb9255458efcaa",
        "name": "Soil To Soul",
        "lat": 22.294059,
        "lng": 114.174326,
        "address": [
            "704, 7/F, K11 Musea (Victoria Dockside)",
            "Kowloon",
            "香港"
        ],
        "city": "Tsim Sha Tsui",
        "state": "Kowloon",
        "categories_id": "4bf58dd8d48988d1d3941735",
        "categories_name": "Vegetarian / Vegan Restaurant"
    },
    {
        "id": "54c71c08498eb3a1cb152c27",
        "name": "Farmer's Cooking",
        "lat": 22.288758573774906,
        "lng": 114.21073703895122,
        "address": [
            "G/F, 5 Hoi Chak Street, Quarry Bay, Hong Kong",
            "香港"
        ],
        "city": "香港",
        "state": null,
        "categories_id": "4bf58dd8d48988d1d3941735",
        "categories_name": "Vegetarian / Vegan Restaurant"
    },
    {
        "id": "4cb54f9c8db0a14302c26116",
        "name": "Kam Heung Vegetarian (甘香齋)",
        "lat": 22.287871612465814,
        "lng": 114.21134065600683,
        "address": [
            "Shop D10-11, 18 Hoi Tai St",
            "香港"
        ],
        "city": "鰂魚涌",
        "state": null,
        "categories_id": "4bf58dd8d48988d1d3941735",
        "categories_name": "Vegetarian / Vegan Restaurant"
    },
    {
        "id": "4b0588d9f964a52006dd22e3",
        "name": "Branto Indian Vegetarian Restaurant",
        "lat": 22.29691440835113,
        "lng": 114.17166528780751,
        "address": [
            "1/F, 9 Lock Rd",
            "Kowloon City",
            "香港"
        ],
        "city": "尖沙咀",
        "state": "Kowloon City",
        "categories_id": "4bf58dd8d48988d1d3941735",
        "categories_name": "Vegetarian / Vegan Restaurant"
    },
    {
        "id": "4b0588d9f964a52004dd22e3",
        "name": "Kung Tak Lam Shanghainese Vegetarian Cuisine (功德林上海素食)",
        "lat": 22.29580121212901,
        "lng": 114.16974474339176,
        "address": [
            "7/F, One Peking, 1 Peking Rd",
            "Kowloon City",
            "香港"
        ],
        "city": "尖沙咀",
        "state": "Kowloon City",
        "categories_id": "4bf58dd8d48988d1d3941735",
        "categories_name": "Vegetarian / Vegan Restaurant"
    },
    {
        "id": "4ceb9dadbaa6a1cd08303f6c",
        "name": "Cute Fei Vegetarian (喬妃齋)",
        "lat": 22.298187477680138,
        "lng": 114.17037731662826,
        "address": [
            "Shop A1, A2 & B1, 2/F Bo Fung Bldg, 32-34 Haiphong Rd",
            "Kowloon City",
            "香港"
        ],
        "city": "尖沙咀",
        "state": "Kowloon City",
        "categories_id": "4bf58dd8d48988d1d3941735",
        "categories_name": "Vegetarian / Vegan Restaurant"
    },
    {
        "id": "4ba5f666f964a5209b2b39e3",
        "name": "Gaia Veggie Shop (大自然素食)",
        "lat": 22.30102969874775,
        "lng": 114.17265034766314,
        "address": [
            "Shop 2005, 2/F, Miramar Shopping Centre, 132 Nathan Rd",
            "香港"
        ],
        "city": "香港",
        "state": null,
        "categories_id": "4bf58dd8d48988d1d3941735",
        "categories_name": "Vegetarian / Vegan Restaurant"
    },
    {
        "id": "4cf64e5871538cfaf56fb42e",
        "name": "Golden Vegetarian Food (金膳健康素食)",
        "lat": 22.280427881019104,
        "lng": 114.22494749261502,
        "address": [
            "250 Shau Kei Wan Rd",
            "香港"
        ],
        "city": "Sai Wan Ho",
        "state": null,
        "categories_id": "4bf58dd8d48988d1d3941735",
        "categories_name": "Vegetarian / Vegan Restaurant"
    },
    {
        "id": "4c3f034d80bc20a183bfab58",
        "name": "Khyber Pass Mess Club (咖喱王)",
        "lat": 22.29617184996688,
        "lng": 114.17240023612976,
        "address": [
            "Flat E2, 7/F, Block E, Chungking Mansions, 36-44 Nathan Rd (36-44 Nathan Road, Tsim Sha Tsui)",
            "Kowloon",
            "香港"
        ],
        "city": "Tsim Sha Tsui",
        "state": "Kowloon",
        "categories_id": "4bf58dd8d48988d1d3941735",
        "categories_name": "Vegetarian / Vegan Restaurant"
    },
    {
        "id": "4d5910498492a14340632227",
        "name": "Qiao Cuisine (巧膳坊)",
        "lat": 22.304604,
        "lng": 114.190175,
        "address": [
            "Shop 106-107, Whampoa Gourmet Place, Whampoa Garden Site 8",
            "Hong Kong",
            "香港"
        ],
        "state": "Hong Kong",
        "categories_id": "4bf58dd8d48988d1d3941735",
        "categories_name": "Vegetarian / Vegan Restaurant"
    },
    {
        "id": "4d63323d625f6dcbc123685e",
        "name": "Three Virtues Vegetarian Restaurant (三德素食館)",
        "lat": 22.304995745930537,
        "lng": 114.17162946104833,
        "address": [
            "G/F & 4/F, JD Mall, 233-239 Nathan Rd",
            "香港"
        ],
        "city": "油麻地",
        "state": null,
        "categories_id": "4bf58dd8d48988d1d3941735",
        "categories_name": "Vegetarian / Vegan Restaurant"
    },
    {
        "id": "583fd7d46f20d11b22e92d8b",
        "name": "Leisurely Veggie 悠蔬食",
        "lat": 22.299336,
        "lng": 114.17506,
        "address": [
            "3/F, China Insurance Building, 48 Cameron Rd",
            "香港"
        ],
        "state": null,
        "categories_id": "4bf58dd8d48988d1d3941735",
        "categories_name": "Vegetarian / Vegan Restaurant"
    },
    {
        "id": "5279c7ed11d21733885e2c05",
        "name": "Greenwoods Raw Café (綠野林．生．活．素餐廳)",
        "lat": 22.297737326835204,
        "lng": 114.17260712063396,
        "address": [
            "13/F, 2 Carnarvon Rd",
            "Kowloon City",
            "香港"
        ],
        "city": "尖沙咀",
        "state": "Kowloon City",
        "categories_id": "4bf58dd8d48988d1d3941735",
        "categories_name": "Vegetarian / Vegan Restaurant"
    },
    {
        "id": "5268b47011d21eaf27aa39f8",
        "name": "素食軒",
        "lat": 22.303666150979822,
        "lng": 114.1824068190993,
        "address": [
            "Shop FS-17, Food Court, 8/F, Fortune Metropolis, 6 Metropolis Dr",
            "香港"
        ],
        "city": "红磡",
        "state": null,
        "categories_id": "4bf58dd8d48988d1d3941735",
        "categories_name": "Vegetarian / Vegan Restaurant"
    },
    {
        "id": "4d4566bebf61a1cd2fe112ac",
        "name": "Ah Sin Vegetarian (阿善素食)",
        "lat": 22.29997508098487,
        "lng": 114.17616371481816,
        "address": [
            "M/F, 71 Chatham Rd S",
            "香港"
        ],
        "city": "香港",
        "state": null,
        "categories_id": "4bf58dd8d48988d1d3941735",
        "categories_name": "Vegetarian / Vegan Restaurant"
    },
    {
        "id": "573ffb4b498e229f3af84e0e",
        "name": "Veggle Café",
        "lat": 22.310943,
        "lng": 114.226242,
        "address": [
            "Shop G13A G/F E-Plaza, 7 Shing Yip St",
            "Hong Kong",
            "香港"
        ],
        "state": "Hong Kong",
        "categories_id": "4bf58dd8d48988d1d3941735",
        "categories_name": "Vegetarian / Vegan Restaurant"
    },
    {
        "id": "55e10aad498e7d812fae3e58",
        "name": "O&S Vegetarian (一心素食)",
        "lat": 22.312779,
        "lng": 114.220041,
        "address": [
            "3/F, 30 Hung To Rd (at How Ming St)",
            "Kowloon",
            "香港"
        ],
        "city": "Kwun Tong",
        "state": "Kowloon",
        "categories_id": "4bf58dd8d48988d1d3941735",
        "categories_name": "Vegetarian / Vegan Restaurant"
    },
    {
        "id": "4c467c4e89a6c9b6bc7f9788",
        "name": "水月林素菜館",
        "lat": 22.314599480154012,
        "lng": 114.22205040208195,
        "address": [
            "333 Ngau Tau Kok Rd",
            "香港"
        ],
        "city": "牛头角",
        "state": null,
        "categories_id": "4bf58dd8d48988d1d3941735",
        "categories_name": "Vegetarian / Vegan Restaurant"
    },
    {
        "id": "5a23b39c8c35dc301ab771a6",
        "name": "Green Common",
        "lat": 22.307472,
        "lng": 114.258125,
        "address": [
            "Shop G05, G/F, Park Central, 9 Tong Tak St",
            "New Territories",
            "香港"
        ],
        "city": "Tseung Kwan O",
        "state": "New Territories",
        "categories_id": "4bf58dd8d48988d1d3941735",
        "categories_name": "Vegetarian / Vegan Restaurant"
    },
    {
        "id": "4e30b4a5483bb3fdc4379f18",
        "name": "Water Drop Teahouse (滴水坊)",
        "lat": 22.321068884909607,
        "lng": 114.20626848936081,
        "address": [
            "Shop A, Billion Centre, 1 Wang Kwong Rd",
            "香港"
        ],
        "city": "Kowloon Bay",
        "state": null,
        "categories_id": "4bf58dd8d48988d1d3941735",
        "categories_name": "Vegetarian / Vegan Restaurant"
    },
    {
        "id": "53788a9a498efd10373afa09",
        "name": "Destine Vegetarian Restaurant (緣來素食)",
        "lat": 22.247778,
        "lng": 114.154054,
        "address": [
            "B/F & G/F, Aberdeen Centre, 1-5 Nam Ning St",
            "Southern",
            "香港"
        ],
        "city": "Aberdeen",
        "state": "Southern",
        "categories_id": "4bf58dd8d48988d1d3941735",
        "categories_name": "Vegetarian / Vegan Restaurant"
    },
    {
        "id": "59f01932029a55779f387106",
        "name": "My Meat Run Buddy (走肉·朋友)",
        "lat": 22.319492,
        "lng": 114.160799,
        "address": [
            "28-30 Pok Man Street",
            "香港"
        ],
        "city": "香港",
        "state": null,
        "categories_id": "4bf58dd8d48988d1d3941735",
        "categories_name": "Vegetarian / Vegan Restaurant"
    },
    {
        "id": "59a28fa993bd63511b9cd8cd",
        "name": "Green Common The FOREST",
        "lat": 22.31913772118028,
        "lng": 114.17175515196733,
        "address": [
            "Shop 110, 1/F The Forest, 17 Nelson Street",
            "Hong Kong",
            "香港"
        ],
        "city": "旺角",
        "state": "Hong Kong",
        "categories_id": "4bf58dd8d48988d1d3941735",
        "categories_name": "Vegetarian / Vegan Restaurant"
    },
    {
        "id": "5019430ae4b04faf3601f29d",
        "name": "珍心素食",
        "lat": 22.31525813443718,
        "lng": 114.16954393167656,
        "address": [
            "124-128B Portland St",
            "香港"
        ],
        "city": "旺角",
        "state": null,
        "categories_id": "4bf58dd8d48988d1d3941735",
        "categories_name": "Vegetarian / Vegan Restaurant"
    },
    {
        "id": "4dd8e60ed4c05d50970d8580",
        "name": "Sin Tak Fook Vegetarian (膳德福素食)",
        "lat": 22.320322530362173,
        "lng": 114.17096414041364,
        "address": [
            "G/F, 120 Fa Yuen St",
            "香港"
        ],
        "city": "旺角",
        "state": null,
        "categories_id": "4bf58dd8d48988d1d3941735",
        "categories_name": "Vegetarian / Vegan Restaurant"
    },
    {
        "id": "4cfe2715feec6dcb1a245636",
        "name": "Chi Lin Vegetarian (龍門樓志蓮素齋)",
        "lat": 22.33905508342449,
        "lng": 114.20572630538717,
        "address": [
            "Nan Lian Garden, 60 Fung Tak Rd",
            "香港"
        ],
        "city": "钻石山",
        "state": null,
        "categories_id": "4bf58dd8d48988d1d3941735",
        "categories_name": "Vegetarian / Vegan Restaurant"
    },
    {
        "id": "590fad50ea1e4476bffabf1d",
        "name": "Baofanji (包販子)",
        "lat": 22.326143,
        "lng": 114.169245,
        "address": [
            "G/F, 252 Tung Choi St",
            "Hong Kong",
            "香港"
        ],
        "city": "旺角",
        "state": "Hong Kong",
        "categories_id": "4bf58dd8d48988d16a941735",
        "categories_name": "Bakery"
    },
    {
        "id": "4c1a2f8498f4a593022901f6",
        "name": "M Garden Vegetarian (常悅素食)",
        "lat": 22.315274364979484,
        "lng": 114.16947104450531,
        "address": [
            "2/F, Omega Plaza, 32-34A Dundas St",
            "油尖旺區",
            "香港"
        ],
        "city": "Mongkok",
        "state": "油尖旺區",
        "categories_id": "4bf58dd8d48988d1d3941735",
        "categories_name": "Vegetarian / Vegan Restaurant"
    },
    {
        "id": "4e57891fd22d61e8f33ada76",
        "name": "Paramita Vegetarian House 波羅密素食",
        "lat": 22.297326985725203,
        "lng": 114.17051130380251,
        "address": [
            "3/F, Daily House, 35-37 Haiphong Rd",
            "Kowloon City",
            "香港"
        ],
        "city": "尖沙咀",
        "state": "Kowloon City",
        "categories_id": "4bf58dd8d48988d1d3941735",
        "categories_name": "Vegetarian / Vegan Restaurant"
    },
    {
        "id": "4b657086f964a5209cf02ae3",
        "name": "Fruit Stop 菓一道 (菓一道)",
        "lat": 22.299824550291806,
        "lng": 114.16846912103418,
        "address": [
            "3/F, China Hong Kong Centre, 122-126 Canton Rd",
            "Kowloon City",
            "香港"
        ],
        "city": "尖沙咀",
        "state": "Kowloon City",
        "categories_id": "4bf58dd8d48988d1d3941735",
        "categories_name": "Vegetarian / Vegan Restaurant"
    },
    {
        "id": "5b66da3cf96b2c002c5b85ee",
        "name": "Everyday 每日",
        "lat": 22.302659,
        "lng": 114.172747,
        "address": [
            "10 Hillwood Road",
            "香港"
        ],
        "city": "香港",
        "state": null,
        "categories_id": "4bf58dd8d48988d1d3941735",
        "categories_name": "Vegetarian / Vegan Restaurant"
    },
    {
        "id": "59c126bf79f6c7441965ea37",
        "name": "Ahimsa Buffet 無肉食",
        "lat": 22.304724,
        "lng": 114.17229,
        "address": [
            "G/F, 8 Tak Hing Street",
            "Kowloon",
            "香港"
        ],
        "city": "Jordan",
        "state": "Kowloon",
        "categories_id": "4bf58dd8d48988d1d3941735",
        "categories_name": "Vegetarian / Vegan Restaurant"
    },
    {
        "id": "4e44d825d4c02cf15f676e92",
        "name": "Luk Yung Sin Kun Vegetarian Restaurant (六榕仙館)",
        "lat": 22.305542589402094,
        "lng": 114.1689385315565,
        "address": [
            "38 Jordan Rd",
            "香港"
        ],
        "city": "油麻地",
        "state": null,
        "categories_id": "4bf58dd8d48988d1d3941735",
        "categories_name": "Vegetarian / Vegan Restaurant"
    },
    {
        "id": "4b9c8f79f964a520457036e3",
        "name": "Sino Vegetarian Restaurant (Sino Vegetarian Restaurant 大中華素食)",
        "lat": 22.30708413486398,
        "lng": 114.17103316246782,
        "address": [
            "G/F, 131-135 Parkes St",
            "香港"
        ],
        "city": "油麻地",
        "state": null,
        "categories_id": "4bf58dd8d48988d1d3941735",
        "categories_name": "Vegetarian / Vegan Restaurant"
    },
    {
        "id": "4c009ece34ccc92838f4e1cd",
        "name": "Light Vegetarian Restaurant (普光齋)",
        "lat": 22.3056185696195,
        "lng": 114.17220943869165,
        "address": [
            "G/F, New Lucky House, 13 Jordan Rd",
            "香港"
        ],
        "city": "油麻地",
        "state": null,
        "categories_id": "4bf58dd8d48988d1d3941735",
        "categories_name": "Vegetarian / Vegan Restaurant"
    },
    {
        "id": "5afbf7ac4186860039fb72a7",
        "name": "Mum Veggie + Coffee + Sweet",
        "lat": 22.308223,
        "lng": 114.17175,
        "address": [
            "Eaton Hotel",
            "香港"
        ],
        "city": "香港",
        "state": null,
        "categories_id": "4bf58dd8d48988d1d3941735",
        "categories_name": "Vegetarian / Vegan Restaurant"
    },
    {
        "id": "4e8d923f61af7424daa27383",
        "name": "Ying Vegetarian 瀛素食 (瀛素食)",
        "lat": 22.31032699582292,
        "lng": 114.17039839300064,
        "address": [
            "G/F Kamly Court 61 Tample St",
            "香港"
        ],
        "city": "香港",
        "state": null,
        "categories_id": "4bf58dd8d48988d1d3941735",
        "categories_name": "Vegetarian / Vegan Restaurant"
    },
    {
        "id": "4d4a4763a0ef548197c3faf6",
        "name": "Man Po (萬寶素食館)",
        "lat": 22.31793732703503,
        "lng": 114.17505371629949,
        "address": [
            "G-3/F, 67 Waterloo Road, Ho Man Tin",
            "香港"
        ],
        "city": "Ho Man Tin",
        "state": null,
        "categories_id": "4bf58dd8d48988d1d3941735",
        "categories_name": "Vegetarian / Vegan Restaurant"
    },
    {
        "id": "5ad196fb95a7226989f59b34",
        "name": "Ahimsa Buffet 無肉食",
        "lat": 22.319514,
        "lng": 114.171878,
        "address": [
            "2/F, 88 Sai Yee Street",
            "Kowloon",
            "香港"
        ],
        "city": "Mong Kok",
        "state": "Kowloon",
        "categories_id": "4bf58dd8d48988d1d3941735",
        "categories_name": "Vegetarian / Vegan Restaurant"
    },
    {
        "id": "4d415d18bd53f04dee904c15",
        "name": "Gaia Veggie Shop (大自然素食)",
        "lat": 22.32215007731248,
        "lng": 114.16903674602509,
        "address": [
            "Shop 335, 3/F, Pioneer Centre, 750 Nathan Rd",
            "香港"
        ],
        "city": "旺角",
        "state": null,
        "categories_id": "4bf58dd8d48988d1d3941735",
        "categories_name": "Vegetarian / Vegan Restaurant"
    },
    {
        "id": "4bd967f211dcc928b3a4f933",
        "name": "Veggie Family (素食一家)",
        "lat": 22.32173448423545,
        "lng": 114.17122977853869,
        "address": [
            "G/F, Cheung Wah Mansion, 145 Sai Yee St",
            "油尖旺區",
            "香港"
        ],
        "city": "Mongkok",
        "state": "油尖旺區",
        "categories_id": "4bf58dd8d48988d1d3941735",
        "categories_name": "Vegetarian / Vegan Restaurant"
    },
    {
        "id": "520b7a0c11d256220a100fad",
        "name": "Bodhisattva Vegetarian Restaurant (觀自在素食)",
        "lat": 22.320564573712335,
        "lng": 114.16826695203781,
        "address": [
            "2/F, Bright Way Tower, 33 Mong Kok Rd",
            "香港"
        ],
        "city": "旺角",
        "state": null,
        "categories_id": "4bf58dd8d48988d1d3941735",
        "categories_name": "Vegetarian / Vegan Restaurant"
    },
    {
        "id": "52ff501111d2964d60da8e98",
        "name": "Amazing Kitchen (香積廚素食館)",
        "lat": 22.320289959887784,
        "lng": 114.17088866767733,
        "address": [
            "G/F, 110 Fa Yuen St",
            "油尖旺區",
            "香港"
        ],
        "city": "Mongkok",
        "state": "油尖旺區",
        "categories_id": "4bf58dd8d48988d1d3941735",
        "categories_name": "Vegetarian / Vegan Restaurant"
    },
    {
        "id": "4d7223ca946b6dcbec86367a",
        "name": "Miu Fat Chai 妙法齋",
        "lat": 22.316976094780692,
        "lng": 114.18965195357175,
        "address": [
            "G/F, 37 Mei King St",
            "香港"
        ],
        "city": "土瓜湾",
        "state": null,
        "categories_id": "4bf58dd8d48988d1d3941735",
        "categories_name": "Vegetarian / Vegan Restaurant"
    },
    {
        "id": "4c7a3379566db60c2660470e",
        "name": "Evergreen Vegetarian Restaurant (禾之家素食)",
        "lat": 22.32455356375716,
        "lng": 114.17010491157724,
        "address": [
            "224C Fa Yuen St",
            "香港"
        ],
        "city": "旺角",
        "state": null,
        "categories_id": "4bf58dd8d48988d1d3941735",
        "categories_name": "Vegetarian / Vegan Restaurant"
    },
    {
        "id": "51bd3cfe454afba913cd2549",
        "name": "Take a Break Café (居廬)",
        "lat": 22.326535087601744,
        "lng": 114.16569133894937,
        "address": [
            "12A Boundary St",
            "香港"
        ],
        "city": "旺角",
        "state": null,
        "categories_id": "4bf58dd8d48988d1d3941735",
        "categories_name": "Vegetarian / Vegan Restaurant"
    },
    {
        "id": "5ee85e785615170008091f64",
        "name": "The Park By Years",
        "lat": 22.327946,
        "lng": 114.163925,
        "address": [
            "132 Yu Chau St,",
            "Kowloon",
            "香港"
        ],
        "city": "Sham Shui Po",
        "state": "Kowloon",
        "categories_id": "4bf58dd8d48988d1d3941735",
        "categories_name": "Vegetarian / Vegan Restaurant"
    },
    {
        "id": "5cd3fdc4588e36002cd9a270",
        "name": "Years (素年)",
        "lat": 22.332745,
        "lng": 114.160932,
        "address": [
            "Shop 1, G/F, Fuk Lung Bldg,191-199 Fuk Wah St",
            "Kowloon",
            "香港"
        ],
        "city": "Sham Shui Po",
        "state": "Kowloon",
        "categories_id": "4bf58dd8d48988d1d3941735",
        "categories_name": "Vegetarian / Vegan Restaurant"
    },
    {
        "id": "4e1a8afdd22d512258973f23",
        "name": "Vegetarian New Generation (素食新一代)",
        "lat": 22.370888302886502,
        "lng": 114.12004035721394,
        "address": [
            "Shop 52&55, 1/F, Tsuen Cheong Centre Tsuen On Bldg, Sai Lau Kok Rd",
            "Tsuen Wan District",
            "香港"
        ],
        "city": "Tsuen Wan",
        "state": "Tsuen Wan District",
        "categories_id": "4bf58dd8d48988d1d3941735",
        "categories_name": "Vegetarian / Vegan Restaurant"
    },
    {
        "id": "4daa784f5da3ba8a478c9fca",
        "name": "Bo Lin Vegetarian Restaurant (寶蓮素食)",
        "lat": 22.369082276869598,
        "lng": 114.11627208092811,
        "address": [
            "G/F, 81 Chung On St",
            "香港"
        ],
        "city": "香港",
        "state": null,
        "categories_id": "4bf58dd8d48988d1d3941735",
        "categories_name": "Vegetarian / Vegan Restaurant"
    },
    {
        "id": "4d0b4c87109d6dcb78348e8d",
        "name": "Gaia Veggie Shop 大自然素食",
        "lat": 22.370525595572744,
        "lng": 114.11196564003836,
        "address": [
            "Shop 433, Tsuen Wan Plaza, 4-30 Tai Pa St",
            "Tsuen Wan District",
            "香港"
        ],
        "city": "Tsuen Wan",
        "state": "Tsuen Wan District",
        "categories_id": "4bf58dd8d48988d1d3941735",
        "categories_name": "Vegetarian / Vegan Restaurant"
    },
    {
        "id": "4e2c1cae7d8b7deda6d75d11",
        "name": "蓮花健康素食",
        "lat": 22.328654,
        "lng": 114.187587,
        "address": [
            "G/F, 39 Fuk Lo Tsun Rd",
            "香港"
        ],
        "city": "九龙城",
        "state": null,
        "categories_id": "4bf58dd8d48988d1d3941735",
        "categories_name": "Vegetarian / Vegan Restaurant"
    },
    {
        "id": "4c4a70219c8d2d7f6b318669",
        "name": "Lotus Vegetarian Restaurant (蓮花健康素食)",
        "lat": 22.32864837105923,
        "lng": 114.1876374930739,
        "address": [
            "124-134 Nga Tsin Wai Rd",
            "香港"
        ],
        "city": "香港",
        "state": null,
        "categories_id": "4bf58dd8d48988d1d3941735",
        "categories_name": "Vegetarian / Vegan Restaurant"
    },
    {
        "id": "5a7447162aff313e974d6252",
        "name": "Heartful Veggie (從心素食)",
        "lat": 22.333473,
        "lng": 114.19643,
        "address": [
            "Shop 107, 1/F, Mikiki Mall, 638 Prince Edward Rd E",
            "Kowloon City",
            "香港"
        ],
        "city": "九龍",
        "state": "Kowloon City",
        "categories_id": "4bf58dd8d48988d1d3941735",
        "categories_name": "Vegetarian / Vegan Restaurant"
    },
    {
        "id": "4cfcd1e1c51fa1cd54c4ed2b",
        "name": "Perfect Vegetarian Foods 百好素食",
        "lat": 22.342040863916406,
        "lng": 114.19333252898709,
        "address": [
            "Shop LG6 136 Lung Cheung Mall (136 Lung Cheung Road)",
            "Kowloon City",
            "香港"
        ],
        "city": "九龍",
        "state": "Kowloon City",
        "categories_id": "4bf58dd8d48988d1d3941735",
        "categories_name": "Vegetarian / Vegan Restaurant"
    },
    {
        "id": "50cda23be4b00d24a938d19b",
        "name": "Gaia Veggie Shop (大自然素食)",
        "lat": 22.34110418497635,
        "lng": 114.1971291785004,
        "address": [
            "Shop 102, 1/F, Lions Rise Mall, 8 Muk Lun St",
            "Wong Tai Sin",
            "香港"
        ],
        "city": "Wong Tai Sin",
        "state": "Wong Tai Sin",
        "categories_id": "4bf58dd8d48988d1d3941735",
        "categories_name": "Vegetarian / Vegan Restaurant"
    },
    {
        "id": "4d0f5554b765224b8716e432",
        "name": "Loving Hut (愛家)",
        "lat": 22.32402746771944,
        "lng": 114.2164595271529,
        "address": [
            "Unit 242-245, G/F, Amoy Plaza 2 (77 Ngau Tau Kok Rd)",
            "香港"
        ],
        "city": "牛头角",
        "state": null,
        "categories_id": "4bf58dd8d48988d1d3941735",
        "categories_name": "Vegetarian / Vegan Restaurant"
    },
    {
        "id": "506fd320e4b018a976fd11ac",
        "name": "Ten Thousand Buddhas Monastery Vegetarian Centre (萬佛寺齋堂)",
        "lat": 22.387481601643106,
        "lng": 114.18486832048436,
        "address": [
            "220 Pai Tau Village",
            "沙田區",
            "香港"
        ],
        "city": "Shatin",
        "state": "沙田區",
        "categories_id": "4bf58dd8d48988d1d3941735",
        "categories_name": "Vegetarian / Vegan Restaurant"
    },
    {
        "id": "4bfe670ef7c82d7f107e8f04",
        "name": "Kung Tak Lam Shanghai Vegetarian Cuisine 功德林上海素食",
        "lat": 22.381894798026643,
        "lng": 114.18804851342092,
        "address": [
            "8 Shatin Centre St. (Shop 701, 7/F, New Town Plaza)",
            "沙田區",
            "香港"
        ],
        "city": "Shatin",
        "state": "沙田區",
        "categories_id": "4bf58dd8d48988d1d3941735",
        "categories_name": "Vegetarian / Vegan Restaurant"
    },
    {
        "id": "4b8519d3f964a520044c31e3",
        "name": "Fruit Stop (菓一道)",
        "lat": 22.38020786521149,
        "lng": 114.18806128524294,
        "address": [
            "2-8 Sha Tin Centre St. (Shop A184-A187, 1/F, New Town Plaza 3)",
            "沙田區",
            "香港"
        ],
        "city": "Shatin",
        "state": "沙田區",
        "categories_id": "4bf58dd8d48988d1d3941735",
        "categories_name": "Vegetarian / Vegan Restaurant"
    },
    {
        "id": "51176e6ee4b03e9923e56d47",
        "name": "Vastwood Vegetarian Co. Ltd 寶妙素食",
        "lat": 22.36821244989529,
        "lng": 114.13391129066656,
        "address": [
            "Shop G, G/F, Cheung Nin Bldg, 1033 Kwai Chung Rd",
            "香港"
        ],
        "city": "Kwai Chung",
        "state": null,
        "categories_id": "4bf58dd8d48988d1d3941735",
        "categories_name": "Vegetarian / Vegan Restaurant"
    },
    {
        "id": "5f8fdf879ab4fe0578b76f41",
        "name": "Loving Nature",
        "lat": 22.366735,
        "lng": 114.135113,
        "address": [
            "30 Kwai Wing Road",
            "New Territories",
            "香港"
        ],
        "city": "Kwai Chung",
        "state": "New Territories",
        "categories_id": "4bf58dd8d48988d1d3941735",
        "categories_name": "Vegetarian / Vegan Restaurant"
    },
    {
        "id": "614da64d4f73bb5d2aad12e3",
        "name": "Green Entrance (入素)",
        "lat": 22.362009,
        "lng": 114.132653,
        "address": [
            "Shop 804, 8/F, Life@KCC, 72-76 Kwai Cheong Rd",
            "New Territories",
            "香港"
        ],
        "city": "Kwai Chung",
        "state": "New Territories",
        "categories_id": "4bf58dd8d48988d1d3941735",
        "categories_name": "Vegetarian / Vegan Restaurant"
    },
    {
        "id": "52295eae11d239b5ded45568",
        "name": "歡喜素食",
        "lat": 22.36701810288569,
        "lng": 114.13976958470128,
        "address": [
            "和宜合道50號葵涌花園中心商場LG7-17號",
            "香港"
        ],
        "state": null,
        "categories_id": "4bf58dd8d48988d1d3941735",
        "categories_name": "Vegetarian / Vegan Restaurant"
    },
    {
        "id": "5b10ae42ccad6b00392a47bb",
        "name": "如意素食",
        "lat": 22.357975,
        "lng": 114.127384,
        "address": [
            "G/F, Kwai Chung Plaza",
            "香港"
        ],
        "city": "Kwai Chung",
        "state": null,
        "categories_id": "4bf58dd8d48988d1d3941735",
        "categories_name": "Vegetarian / Vegan Restaurant"
    },
    {
        "id": "5adea5f3a92d981904af522d",
        "name": "天恩健康素食",
        "lat": 22.371301,
        "lng": 114.119733,
        "address": [
            "Hong Kong",
            "香港"
        ],
        "state": "Hong Kong",
        "categories_id": "4bf58dd8d48988d1d3941735",
        "categories_name": "Vegetarian / Vegan Restaurant"
    },
    {
        "id": "54265147498e73dbf2d9731d",
        "name": "天恩",
        "lat": 22.371816635131836,
        "lng": 114.11934661865234,
        "address": [
            "香港"
        ],
        "state": null,
        "categories_id": "4bf58dd8d48988d1d3941735",
        "categories_name": "Vegetarian / Vegan Restaurant"
    },
    {
        "id": "5f828a46edd56e26f28c1779",
        "name": "Friends Of Years 素年",
        "lat": 22.368522,
        "lng": 114.117024,
        "address": [
            "G/F, 20 Sam Pei Sq",
            "New Territories",
            "香港"
        ],
        "city": "Tsuen Wan",
        "state": "New Territories",
        "categories_id": "4bf58dd8d48988d1d3941735",
        "categories_name": "Vegetarian / Vegan Restaurant"
    },
    {
        "id": "53831c1a498e151a0520613b",
        "name": "素悅軒",
        "lat": 22.371993,
        "lng": 114.117716,
        "address": [
            "Shop 15, Brighton Place, 25 Shiu Wo St",
            "Tsuen Wan District",
            "香港"
        ],
        "city": "Tsuen Wan",
        "state": "Tsuen Wan District",
        "categories_id": "4bf58dd8d48988d1d3941735",
        "categories_name": "Vegetarian / Vegan Restaurant"
    },
    {
        "id": "514ae479e4b08085250c6cd9",
        "name": "Tin Tin Vegetarian Restaurant (天天素食)",
        "lat": 22.3729132764437,
        "lng": 114.11801977538154,
        "address": [
            "Shop A440-1, 1/F, Nan Fung Centre, 264 Castle Peak Road (Tsuen Wan)",
            "Tsuen Wan District",
            "香港"
        ],
        "city": "Tsuen Wan",
        "state": "Tsuen Wan District",
        "categories_id": "4bf58dd8d48988d1d3941735",
        "categories_name": "Vegetarian / Vegan Restaurant"
    },
    {
        "id": "511b7fbbe4b0e23904d39343",
        "name": "Miu Fat Chai (妙法齋)",
        "lat": 22.368091443520882,
        "lng": 114.11641143222899,
        "address": [
            "G/F, 79 Ho Pui St",
            "Tsuen Wan District",
            "香港"
        ],
        "city": "Tsuen Wan",
        "state": "Tsuen Wan District",
        "categories_id": "4bf58dd8d48988d1d3941735",
        "categories_name": "Vegetarian / Vegan Restaurant"
    },
    {
        "id": "5cdd423964c8e1002cf145ec",
        "name": "Tsui Lin Vegetarian (翠蓮素食)",
        "lat": 22.369157,
        "lng": 114.11621,
        "address": [
            "G/F, 81 Chung On St",
            "New Territories",
            "香港"
        ],
        "city": "Tsuen Wan",
        "state": "New Territories",
        "categories_id": "4bf58dd8d48988d1d3941735",
        "categories_name": "Vegetarian / Vegan Restaurant"
    },
    {
        "id": "554f4372498efa10766c2aa3",
        "name": "Green Fresh Vegan Restaurant 寶田源純素餐廳",
        "lat": 22.37167697251128,
        "lng": 114.11489017820173,
        "address": [
            "Shop 9, G/F, Po Shing Mansion, 77-89 Tai Ho Rd",
            "Tsuen Wan District",
            "香港"
        ],
        "city": "Tsuen Wan",
        "state": "Tsuen Wan District",
        "categories_id": "4bf58dd8d48988d1d3941735",
        "categories_name": "Vegetarian / Vegan Restaurant"
    },
    {
        "id": "60dc05234552fc28fb7577e4",
        "name": "Green Common",
        "lat": 22.368958,
        "lng": 114.112003,
        "address": [
            "Shop 101, 1/F, NINA MALL 2, 98 Tai Ho Rd",
            "新界",
            "香港"
        ],
        "city": "Tsuen Wan",
        "state": "新界",
        "categories_id": "4bf58dd8d48988d1d3941735",
        "categories_name": "Vegetarian / Vegan Restaurant"
    },
    {
        "id": "5e94065e778008000819c2d6",
        "name": "Ahimsa Buffet (無肉食)",
        "lat": 22.368806,
        "lng": 114.111177,
        "address": [
            "Shop 213, 2/F, NINA MALL 2, 98 Tai Ho Rd",
            "New Territories",
            "香港"
        ],
        "city": "Tsuen Wan",
        "state": "New Territories",
        "categories_id": "4bf58dd8d48988d1d3941735",
        "categories_name": "Vegetarian / Vegan Restaurant"
    },
    {
        "id": "54e56533498e5c9e4a77ddcb",
        "name": "Yuen Yuen Vegetarian Restaurant 圓玄素菜館",
        "lat": 22.383593306576103,
        "lng": 114.12347764803984,
        "address": [
            "The Yuen Yuen Institute, Lo Wai Rd",
            "Tsuen Wan District",
            "香港"
        ],
        "city": "Tsuen Wan",
        "state": "Tsuen Wan District",
        "categories_id": "4bf58dd8d48988d1d3941735",
        "categories_name": "Vegetarian / Vegan Restaurant"
    },
    {
        "id": "559775ac498e8f669ea01ad9",
        "name": "香積廚素食",
        "lat": 22.373275756835938,
        "lng": 114.11163330078125,
        "address": [
            "C/F 19, 2/F, Heung Che Street Cooked Food Market, 8 Tso Kung St",
            "Tsuen Wan District",
            "香港"
        ],
        "city": "Tsuen Wan",
        "state": "Tsuen Wan District",
        "categories_id": "4bf58dd8d48988d1d3941735",
        "categories_name": "Vegetarian / Vegan Restaurant"
    },
    {
        "id": "5c2337893ba767002c0da68a",
        "name": "Joie Plant-Based Bistro",
        "lat": 22.374518,
        "lng": 114.110074,
        "address": [
            "New Territories",
            "香港"
        ],
        "city": "Tsuen Wan",
        "state": "New Territories",
        "categories_id": "4bf58dd8d48988d1d3941735",
        "categories_name": "Vegetarian / Vegan Restaurant"
    },
    {
        "id": "50c33062e4b01b1b6d438912",
        "name": "Amitabha Vegetarian Restaurant (佛緣軒素食)",
        "lat": 22.35149476809313,
        "lng": 114.10901427268982,
        "address": [
            "Shop 4, Greenfield Garden Phase 1, Tsing Yi",
            "香港"
        ],
        "city": "青衣",
        "state": null,
        "categories_id": "4bf58dd8d48988d1d3941735",
        "categories_name": "Vegetarian / Vegan Restaurant"
    },
    {
        "id": "514ec66fe4b054c68e9e03dc",
        "name": "Lucky Star",
        "lat": 22.337269492408574,
        "lng": 114.14081466378929,
        "address": [
            "14 Glee Path",
            "香港"
        ],
        "state": null,
        "categories_id": "4bf58dd8d48988d1d3941735",
        "categories_name": "Vegetarian / Vegan Restaurant"
    },
    {
        "id": "4e353337aeb7f67fbd2e67d2",
        "name": "Destine Vegetarian Restaurant (緣來素食)",
        "lat": 22.442272847970184,
        "lng": 114.031341170194,
        "address": [
            "98 Kin Yip St",
            "Yuen Long District",
            "香港"
        ],
        "city": "Yuen Long",
        "state": "Yuen Long District",
        "categories_id": "4bf58dd8d48988d1d3941735",
        "categories_name": "Vegetarian / Vegan Restaurant"
    },
    {
        "id": "537d84f8498e9239c524eb01",
        "name": "Pizza Veg 常嚐素",
        "lat": 22.40352060687315,
        "lng": 113.97861884010317,
        "address": [
            "Shop D, G/F, Kim Po Building",
            "New Territories",
            "香港"
        ],
        "city": "Tuen Mun",
        "state": "New Territories",
        "categories_id": "4bf58dd8d48988d1d3941735",
        "categories_name": "Vegetarian / Vegan Restaurant"
    },
    {
        "id": "5115df86e4b07315834affd7",
        "name": "Life Café Restaurant & Bar",
        "lat": 22.296228495485142,
        "lng": 114.01685153746227,
        "address": [
            "Shop G03A, Discovery Bay Plaza",
            "香港"
        ],
        "city": "Discovery Bay",
        "state": null,
        "categories_id": "4bf58dd8d48988d1d3941735",
        "categories_name": "Vegetarian / Vegan Restaurant"
    },
    {
        "id": "5c15f2db772fbc002c9b859f",
        "name": "Green Common",
        "lat": 22.396979,
        "lng": 113.974989,
        "address": [
            "Shop 7-11, G/F, The Parkville",
            "New Territories",
            "香港"
        ],
        "city": "San Hui",
        "state": "New Territories",
        "categories_id": "4bf58dd8d48988d1d3941735",
        "categories_name": "Vegetarian / Vegan Restaurant"
    },
    {
        "id": "54840975498e236a047fd6e1",
        "name": "Destine Vegetarian Restaurant (緣來素食)",
        "lat": 22.398668957324197,
        "lng": 113.97549058394088,
        "address": [
            "Shop 4-6, 1/F, Eldo Court, 112-140 Tuen Mun Heung Sze Wui Rd",
            "屯門區",
            "香港"
        ],
        "city": "屯門",
        "state": "屯門區",
        "categories_id": "4bf58dd8d48988d1d3941735",
        "categories_name": "Vegetarian / Vegan Restaurant"
    },
    {
        "id": "52d122f6498e8155265b8e05",
        "name": "Miu Fat Chai (妙法齋)",
        "lat": 22.39729449504487,
        "lng": 113.97455901275822,
        "address": [
            "G/F, 8 Ming Ngai St",
            "香港"
        ],
        "city": "香港",
        "state": null,
        "categories_id": "4bf58dd8d48988d1d3941735",
        "categories_name": "Vegetarian / Vegan Restaurant"
    },
    {
        "id": "4c3b1b52d94dc9b62737ffe7",
        "name": "Mighty Vegetarian (大力素食)",
        "lat": 22.447492969865113,
        "lng": 114.02233383991143,
        "address": [
            "Shop 7, G/F, Fook Cheong Building, 35 Ma Wang Rd",
            "新界",
            "香港"
        ],
        "city": "元朗",
        "state": "新界",
        "categories_id": "4bf58dd8d48988d1d3941735",
        "categories_name": "Vegetarian / Vegan Restaurant"
    },
    {
        "id": "4d46a9fd0349224b43da0f4f",
        "name": "大力齋廚",
        "lat": 22.400732720867783,
        "lng": 113.96854162216187,
        "address": [
            "Shop A, G/F, Wai Cheung Industrial Centre",
            "New Territories",
            "香港"
        ],
        "city": "Tuen Mun",
        "state": "New Territories",
        "categories_id": "4bf58dd8d48988d1d3941735",
        "categories_name": "Vegetarian / Vegan Restaurant"
    },
    {
        "id": "52199daa11d21c9af73a2f1b",
        "name": "Po Lin Monastery Restaurant (寶蓮禪寺齋堂)",
        "lat": 22.255659186646334,
        "lng": 113.90762343149018,
        "address": [
            "Po Lin Monastery, Ngong Ping Road, Ngong Ping, Lantau Island",
            "香港"
        ],
        "city": "Ngong Ping",
        "state": null,
        "categories_id": "4bf58dd8d48988d1d3941735",
        "categories_name": "Vegetarian / Vegan Restaurant"
    },
    {
        "id": "4e799171ae60f8128cb04999",
        "name": "Deli Vegetarian Café (緻寶齋)",
        "lat": 22.25578073488509,
        "lng": 113.9077141934048,
        "address": [
            "Po Lin Monastery, Ngong Ping Rd",
            "Hong Kong",
            "香港"
        ],
        "city": "Lantau Island",
        "state": "Hong Kong",
        "categories_id": "4bf58dd8d48988d1d3941735",
        "categories_name": "Vegetarian / Vegan Restaurant"
    },
    {
        "id": "4d424c6274c0236a3c7bd0d1",
        "name": "Lo Hon Monastery (羅漢寺)",
        "lat": 22.267176622789737,
        "lng": 113.92952690167007,
        "address": [
            "Tung Chung Rd",
            "香港"
        ],
        "city": "石門甲",
        "state": null,
        "categories_id": "4bf58dd8d48988d1d3941735",
        "categories_name": "Vegetarian / Vegan Restaurant"
    },
    {
        "id": "529ab1c511d21080c33b6fc5",
        "name": "云来居素食馆 Yunlaiju Vegetarian Restaurant",
        "lat": 22.485149221924125,
        "lng": 113.91125265374781,
        "address": [
            "中国"
        ],
        "state": null,
        "categories_id": "4bf58dd8d48988d1d3941735",
        "categories_name": "Vegetarian / Vegan Restaurant"
    },
    {
        "id": "56862852498e725a36824719",
        "name": "若蘭慈 Vegeterian",
        "lat": 22.52657902390243,
        "lng": 113.9873482232473,
        "address": [
            "欢乐海岸",
            "深圳市",
            "广东",
            "中国"
        ],
        "city": "深圳市",
        "state": "广东",
        "categories_id": "4bf58dd8d48988d1d3941735",
        "categories_name": "Vegetarian / Vegan Restaurant"
    },
    {
        "id": "52d3db0c11d27afa07d87b23",
        "name": "雲來居素食館",
        "lat": 22.520622810062456,
        "lng": 113.91712534869961,
        "address": [
            "中国"
        ],
        "state": null,
        "categories_id": "4bf58dd8d48988d1d3941735",
        "categories_name": "Vegetarian / Vegan Restaurant"
    },
    {
        "id": "4e8400bddab4c2205ba8910e",
        "name": "8Deli",
        "lat": 22.52674913818773,
        "lng": 113.91805171966553,
        "address": [
            "169 Guimiao Road (Nanxin Road)",
            "深圳市",
            "广东",
            "中国"
        ],
        "city": "深圳市",
        "state": "广东",
        "categories_id": "4bf58dd8d48988d1d3941735",
        "categories_name": "Vegetarian / Vegan Restaurant"
    },
    {
        "id": "4ee206cc77c8f9d389ba740d",
        "name": "Primitive and Healthy (缘生态)",
        "lat": 22.540831363549096,
        "lng": 113.97873500060734,
        "address": [
            "Block B, Eco Plaza, OCT",
            "深圳市",
            "广东",
            "中国"
        ],
        "city": "深圳市",
        "state": "广东",
        "categories_id": "4bf58dd8d48988d1d3941735",
        "categories_name": "Vegetarian / Vegan Restaurant"
    },
    {
        "id": "4e3aa119d22d4aca8790adb6",
        "name": "Vegan Awakening (唤觉生态餐厅)",
        "lat": 22.53293917949252,
        "lng": 114.02759850025177,
        "address": [
            "No 83, (Tairan 4th Road)",
            "深圳市",
            "广东",
            "中国"
        ],
        "city": "深圳市",
        "state": "广东",
        "categories_id": "4bf58dd8d48988d1d3941735",
        "categories_name": "Vegetarian / Vegan Restaurant"
    },
    {
        "id": "532ada71498eab65ddda1b2b",
        "name": "Yunlaiju Vegetarian Restaurant (云来居素食馆)",
        "lat": 22.545243803276364,
        "lng": 114.0282341837883,
        "address": [
            "Honey Lake Resort",
            "深圳市",
            "广东",
            "中国"
        ],
        "city": "深圳市",
        "state": "广东",
        "categories_id": "4bf58dd8d48988d1d3941735",
        "categories_name": "Vegetarian / Vegan Restaurant"
    },
    {
        "id": "5982d5f501559a531f613676",
        "name": "Namaste Vegetarian Cuisine 印度素食馆",
        "lat": 22.544846,
        "lng": 114.084397,
        "address": [
            "Zhenhua Road, Huaqiang North Street | 42-27 1/F, Building 1, Zhonghang Beiyuan Mansion,",
            "深圳市",
            "广东, 518000",
            "中国"
        ],
        "city": "深圳市",
        "state": "广东",
        "categories_id": "4bf58dd8d48988d1d3941735",
        "categories_name": "Vegetarian / Vegan Restaurant"
    },
    {
        "id": "52f6229b498e7552d4697a24",
        "name": "天厨妙供新概念素餐厅",
        "lat": 22.549640790804578,
        "lng": 114.10490899917183,
        "address": [
            "红宝路2号",
            "深圳市",
            "广东",
            "中国"
        ],
        "city": "深圳市",
        "state": "广东",
        "categories_id": "4bf58dd8d48988d1d3941735",
        "categories_name": "Vegetarian / Vegan Restaurant"
    },
    {
        "id": "4c442ee036d6a593ba126aa8",
        "name": "靜頤茶館",
        "lat": 22.55521488911679,
        "lng": 114.1043225472618,
        "address": [
            "寶安南路3038號",
            "深圳市",
            "广东",
            "中国"
        ],
        "city": "深圳市",
        "state": "广东",
        "categories_id": "4bf58dd8d48988d1d3941735",
        "categories_name": "Vegetarian / Vegan Restaurant"
    },
    {
        "id": "55be0161498e21f275b1146e",
        "name": "Gaia Veggie Shop (大自然素食)",
        "lat": 22.424183128700015,
        "lng": 114.23132656042833,
        "address": [
            "Shop 3217-18, 3/F, MOSTown (Phase 4), 18 On Luk St",
            "沙田區",
            "香港"
        ],
        "city": "Ma On Shan Tsuen",
        "state": "沙田區",
        "categories_id": "4bf58dd8d48988d1d3941735",
        "categories_name": "Vegetarian / Vegan Restaurant"
    },
    {
        "id": "5cd4f0ebd1a402002b380eec",
        "name": "Just Vegan",
        "lat": 22.545113,
        "lng": 114.105202,
        "address": [
            "深圳市",
            "广东",
            "中国"
        ],
        "city": "深圳市",
        "state": "广东",
        "categories_id": "4bf58dd8d48988d1d3941735",
        "categories_name": "Vegetarian / Vegan Restaurant"
    },
    {
        "id": "580a0c0138fa0d40d0957b25",
        "name": "Jinhaige",
        "lat": 22.53869,
        "lng": 114.095845,
        "address": [
            "73 Nanyuan Rd, Futian, Shenzhen, Guangdong",
            "中国"
        ],
        "state": null,
        "categories_id": "4bf58dd8d48988d1d3941735",
        "categories_name": "Vegetarian / Vegan Restaurant"
    },
    {
        "id": "53bfc366498e0567f99de191",
        "name": "Amazing Kitchen (香積廚素食館 (羅湖店))",
        "lat": 22.547863361990707,
        "lng": 114.10772511907123,
        "address": [
            "罗湖区桂园路53号二楼",
            "深圳市",
            "广东",
            "中国"
        ],
        "city": "深圳市",
        "state": "广东",
        "categories_id": "4bf58dd8d48988d1d3941735",
        "categories_name": "Vegetarian / Vegan Restaurant"
    },
    {
        "id": "4e11b1426284edb6bad96721",
        "name": "云来居素食馆",
        "lat": 22.546741396492955,
        "lng": 114.1130844081886,
        "address": [
            "深圳市",
            "广东",
            "中国"
        ],
        "city": "深圳市",
        "state": "广东",
        "categories_id": "4bf58dd8d48988d1d3941735",
        "categories_name": "Vegetarian / Vegan Restaurant"
    },
    {
        "id": "540d952e498e413c5fb887df",
        "name": "好幸福有机时尚素食餐厅",
        "lat": 22.549054,
        "lng": 114.078083,
        "address": [
            "华强北",
            "中国"
        ],
        "state": null,
        "categories_id": "4bf58dd8d48988d1d3941735",
        "categories_name": "Vegetarian / Vegan Restaurant"
    },
    {
        "id": "5ef72b71b8bca900086295a1",
        "name": "V.W Vegan",
        "lat": 22.449278,
        "lng": 114.167899,
        "address": [
            "227F-06, 2/F",
            "New Territories",
            "香港"
        ],
        "city": "Tai Po",
        "state": "New Territories",
        "categories_id": "4bf58dd8d48988d1d3941735",
        "categories_name": "Vegetarian / Vegan Restaurant"
    },
    {
        "id": "55d82ca2498e5e695555d084",
        "name": "Eat Well Cafe (慧食堂)",
        "lat": 22.44652,
        "lng": 114.169457,
        "address": [
            "Old Tai Po Police Station, 11 Wan Tau Kok Lane",
            "Tai Po District",
            "香港"
        ],
        "city": "Tai Po",
        "state": "Tai Po District",
        "categories_id": "4bf58dd8d48988d1d3941735",
        "categories_name": "Vegetarian / Vegan Restaurant"
    },
    {
        "id": "535ca9f4498edf967b87cfa4",
        "name": "Sun Garden Café (素食亭)",
        "lat": 22.43324089050293,
        "lng": 114.11722564697266,
        "address": [
            "嘉道理農場 (林錦公路)",
            "香港"
        ],
        "city": "大埔",
        "state": null,
        "categories_id": "4bf58dd8d48988d1d3941735",
        "categories_name": "Vegetarian / Vegan Restaurant"
    },
    {
        "id": "55fe8b5b498e73955a81c760",
        "name": "O Veg (素苗)",
        "lat": 22.443862915039062,
        "lng": 114.06925201416016,
        "address": [
            "G/F, 53 Tai Kong Po",
            "香港"
        ],
        "state": null,
        "categories_id": "4bf58dd8d48988d1d3941735",
        "categories_name": "Vegetarian / Vegan Restaurant"
    }
]
