[
    {
        "foursquare_id": "4c4a612f42b4d13aa9191e7d",
        "imageurl": "https://fastly.4sqi.net/img/general/600x400/4903114_8hpj6Aezx_Ufb2mW_P-RoHFnvChkxqpBjplifa51SY4.jpg",
        "category1": "attraction",
        "category2": "Theme Park",
        "name": "Hong Kong Disneyland Ticket Express (香港迪士尼樂園售票處)"
    },
    {
        "foursquare_id": "4b0588d1f964a52082db22e3",
        "imageurl": "https://fastly.4sqi.net/img/general/600x400/13992550_9RiBGdP8np67KCrPqG9uGPn0C6tunQJehRt-mNfYyt0.jpg",
        "category1": "attraction",
        "category2": "Theme Park",
        "name": "Ocean Park Hong Kong (香港海洋公園)"
    },
    {
        "foursquare_id": "4f1a7599e4b0d1a654a73258",
        "imageurl": "https://fastly.4sqi.net/img/general/600x400/10261604_lZSTVf6YA70ciZr8xWjoROyCT3hJXEevuiWvGh42v6Q.jpg",
        "category1": "attraction",
        "category2": "Theme Park",
        "name": "Ocean Express (海洋列車)"
    },
    {
        "foursquare_id": "5d0d8081a7edf80023744d02",
        "imageurl": "https://fastly.4sqi.net/img/general/600x400/2573088_Bks9R5VbsiQteqn4CmZbaDC995GwYLzw8usAS8fWl1E.jpg",
        "category1": "attraction",
        "category2": "Theme Park",
        "name": "Monopoly Dreams"
    },
    {
        "foursquare_id": "5d171aae52b6b10023efdd45",
        "imageurl": "https://fastly.4sqi.net/img/general/600x400/38961610_ObyJJIVM3ds1nz_sDlgcbiHP0z10Yl0fNOx4HUObQfA.jpg",
        "category1": "attraction",
        "category2": "Theme Park",
        "name": "AIA Vitality Park"
    },
    {
        "foursquare_id": "5e049119db05c40008003403",
        "imageurl": "https://fastly.4sqi.net/img/general/600x400/1479894_vsH8Kb80HuoNpz6Txy7IRvKppDerzv7MmScTtxgm75o.jpg",
        "category1": "attraction",
        "category2": "Theme Park",
        "name": "Legoland Discovery Centre"
    },
    {
        "foursquare_id": "4be55ed0d4f7c9b66a4a2520",
        "imageurl": "https://fastly.4sqi.net/img/general/600x400/40186638_kbQzD4e-BhzRRf7BDfz0cwCpCVbHONo1MOH3RUdDTFI.jpg",
        "category1": "attraction",
        "category2": "Theme Park",
        "name": "Hong Kong Disneyland (香港迪士尼樂園)"
    },
    {
        "foursquare_id": "4ef05d7b77c8053fbccfa17b",
        "imageurl": "https://fastly.4sqi.net/img/general/600x400/11690715_SWOkj-Qba6NHzzV5ilj6f5COJZ00eT1858Ll98FgXpY.jpg",
        "category1": "attraction",
        "category2": "Theme Park",
        "name": "Frog Hopper (蛙蛙跳)"
    },
    {
        "foursquare_id": "50029f26e4b01f40ce6ef073",
        "imageurl": "https://fastly.4sqi.net/img/general/600x400/2573088_scego9TCqvXSTr1NO2sv6sbWryd2680FHt4fFnSlWfA.jpg",
        "category1": "attraction",
        "category2": "Theme Park",
        "name": "Bumper Blaster 橫衝直撞"
    },
    {
        "foursquare_id": "4f507011e4b02bef427c68a9",
        "imageurl": "https://fastly.4sqi.net/img/general/600x400/24701260_Lm1imE3Ezg96KY_V2Zm5bKpoJITZzcWvK67v_Tuuzk8.jpg",
        "category1": "attraction",
        "category2": "Theme Park",
        "name": "Adventure Land"
    },
    {
        "foursquare_id": "514e9012e4b0ec8b8046928c",
        "imageurl": "https://fastly.4sqi.net/img/general/600x400/665929_ybNItCG82mMN2qpfQaFMOvGdpsS_-57aIaScFNrwRMM.jpg",
        "category1": "attraction",
        "category2": "Theme Park",
        "name": "Eagle 翻天飛鷹"
    },
    {
        "foursquare_id": "50af44ece4b0f10421ba6491",
        "imageurl": "https://fastly.4sqi.net/img/general/600x400/274110_uyZNY37RYbUhcmpOcbeCNt3so1snYlZcCzQt2cfI4F8.jpg",
        "category1": "attraction",
        "category2": "Theme Park",
        "name": "天神村"
    },
    {
        "foursquare_id": "4b6539c8f964a5209be92ae3",
        "imageurl": "https://fastly.4sqi.net/img/general/600x400/21052915__jArc2SoTDI7GunEyk9p7mADKywCQDf4dsKT7olAgVU.jpg",
        "category1": "attraction",
        "category2": "Theme Park",
        "name": "Snoopy's World (史諾比開心世界)"
    },
    {
        "foursquare_id": "548d2774498e6561894b8507",
        "imageurl": "",
        "category1": "attraction",
        "category2": "Theme Park",
        "name": "Title Escape (密室梯逃)"
    },
    {
        "foursquare_id": "4e59fae1ae6099fc00cf9086",
        "imageurl": "https://fastly.4sqi.net/img/general/600x400/125117322_o6ANVG9O_jI8_zFUvv2FfyIKzZMOc5GiZo_GD1tZ3ZA.jpg",
        "category1": "attraction",
        "category2": "Theme Park",
        "name": "Playhouse"
    },
    {
        "foursquare_id": "522c2a7211d277bf48009354",
        "imageurl": "",
        "category1": "attraction",
        "category2": "Theme Park",
        "name": "Mission Route"
    },
    {
        "foursquare_id": "4fe6eaeae4b03c981ba87c70",
        "imageurl": "https://fastly.4sqi.net/img/general/600x400/37872072_zSD3mSSU5bLI2cC4tbrAvMU4bLF0EX4UPWuCwMwwLfQ.jpg",
        "category1": "attraction",
        "category2": "Theme Park",
        "name": "MegaKids 童真天地"
    },
    {
        "foursquare_id": "4b542d11f964a520cfb327e3",
        "imageurl": "https://fastly.4sqi.net/img/general/600x400/C05ef9xZF6VS0Es8h4dZkPmssf48Ota7WcWFUJgidYw.jpg",
        "category1": "attraction",
        "category2": "Theme Park",
        "name": "Noah's Ark 挪亞方舟 (挪亞方舟)"
    },
    {
        "foursquare_id": "5576768d498e4ce27034ec2b",
        "imageurl": "https://fastly.4sqi.net/img/general/600x400/97914604_--hUDKJlZQJd6SzVx5fQtYuubSDIxx5uwIA0FzkUUos.jpg",
        "category1": "attraction",
        "category2": "Theme Park",
        "name": "Frozen Village"
    },
    {
        "foursquare_id": "586747f13bd4ab74089cc606",
        "imageurl": "https://fastly.4sqi.net/img/general/600x400/305178_Rm4SduEIPydNqv4W2Ab548B295DVrggeykdCO9s1X6I.jpg",
        "category1": "attraction",
        "category2": "Theme Park",
        "name": "Stark Expo"
    },
    {
        "foursquare_id": "5a69a10c01235856e2aa52a6",
        "imageurl": "https://fastly.4sqi.net/img/general/600x400/1283092_MRbSMWBvQ3H7joxyOwi04Meis7Z9f90YgLQNIfxONMg.jpg",
        "category1": "attraction",
        "category2": "Theme Park",
        "name": "Royal Princess Garden in HKDL"
    },
    {
        "foursquare_id": "5a80008166fc653dad800244",
        "imageurl": "https://fastly.4sqi.net/img/general/600x400/555604865_bJ7tYh_k85w7TIz6j41ZZ9wsbNT53FIuTMIvZPAEu70.jpg",
        "category1": "attraction",
        "category2": "Theme Park",
        "name": "The Pavilion Hong Kong Disneyland"
    },
    {
        "foursquare_id": "52345e6b498edf4acfce7f35",
        "imageurl": "https://fastly.4sqi.net/img/general/600x400/12748614_wTmz2RANHm1jGJJejen4FPCZ6i-H2wZUqfrg_OLYFXc.jpg",
        "category1": "attraction",
        "category2": "Theme Park",
        "name": "Lantern Wonderland"
    },
    {
        "foursquare_id": "4bb82bacb35776b058bdc801",
        "imageurl": "https://fastly.4sqi.net/img/general/600x400/58216102_3IC0ltqnSFWDyxIzBn1r87PENqawG13RTXDb-945iL0.jpg",
        "category1": "attraction",
        "category2": "Theme Park",
        "name": "China Folk Culture Villages (中国民俗文化村)"
    },
    {
        "foursquare_id": "4bf39d6a3f86c9b67953b21c",
        "imageurl": "https://fastly.4sqi.net/img/general/600x400/1221532_mfynSu9sRBayACxfsBKPEywD84Y6vSRWEtZA7ODT2Pw.jpg",
        "category1": "attraction",
        "category2": "Theme Park",
        "name": "Splendid China (锦绣中华)"
    },
    {
        "foursquare_id": "4d203115b69c6dcb3af96d95",
        "imageurl": "https://fastly.4sqi.net/img/general/600x400/6620141_8mmc7ZTx4l_w78S3NF6KxapYSm7l2yMGV2_JSNiEO78.jpg",
        "category1": "attraction",
        "category2": "Theme Park",
        "name": "Window of the World (世界之窗)"
    },
    {
        "foursquare_id": "4ceb7db00f196dcb3d1158ae",
        "imageurl": "https://fastly.4sqi.net/img/general/600x400/3083082_cIrP8KES6sZMRRiczPznZRLpPfmyOLkgL4knzrDOUHw.jpg",
        "category1": "attraction",
        "category2": "Theme Park",
        "name": "青青世界 Evergreen Resort"
    },
    {
        "foursquare_id": "511b3e18e4b09fc6487af493",
        "imageurl": "https://fastly.4sqi.net/img/general/600x400/27667714_c5RlGfhSK4h05SMrR7fTSmP4F_dD4JCFphzgaxqIUW4.jpg",
        "category1": "attraction",
        "category2": "Theme Park",
        "name": "Happy Valley (深圳欢乐谷)"
    },
    {
        "foursquare_id": "4d0c21d23bbaa143322934da",
        "imageurl": "https://fastly.4sqi.net/img/general/600x400/2915535_cuyi_mEl9aw59pKppVnsZuygEo-551ytn1gU_QhJhDE.jpg",
        "category1": "attraction",
        "category2": "Theme Park",
        "name": "深圳野生动物园 Safari Park Shenzhen"
    },
    {
        "foursquare_id": "4f0019188231bcb7041d9a66",
        "imageurl": "https://fastly.4sqi.net/img/general/600x400/55455635_J4Hyd49D9xABYB1CIbL1fQZa1YDwbozZlO6Elw2xyP8.jpg",
        "category1": "attraction",
        "category2": "Theme Park",
        "name": "深圳市儿童乐园 (深圳市兒童樂園)"
    },
    {
        "foursquare_id": "568dd86a498eb8a073b2dca7",
        "imageurl": "https://fastly.4sqi.net/img/general/600x400/379913688_y88WCip2tqTskDK1DY39okl2d97WX26r7BsFpx_HTME.jpg",
        "category1": "attraction",
        "category2": "Theme Park",
        "name": "求水山乐园 Qiushuishan Park"
    },
    {
        "foursquare_id": "4c4ba6e0712ac92807fc2d6d",
        "imageurl": "https://fastly.4sqi.net/img/general/600x400/41761230_GRCvtJAiebCGQgbCUD2r-0Mikz8v707r4PYsAgrK4dU.jpg",
        "category1": "attraction",
        "category2": "Theme Park",
        "name": "Tea Stream Valley (茶溪谷)"
    },
    {
        "foursquare_id": "4cd6125467adf04dc3433191",
        "imageurl": "https://fastly.4sqi.net/img/general/600x400/21140969_FafKK3Yva_mF8PNkLs0_b-SzrvDinwpOh_JO11C1cns.jpg",
        "category1": "attraction",
        "category2": "Theme Park",
        "name": "东部华侨城 OCT East (东部华侨城)"
    },
    {
        "foursquare_id": "4eec4919f9ab8c5a004e8edc",
        "imageurl": "https://fastly.4sqi.net/img/general/600x400/2938446_5HHmDpjW4_tRrLr-C0qFksjwLn8kqB88tk6aBPAmyHM.jpg",
        "category1": "attraction",
        "category2": "Theme Park",
        "name": "文化宮游乐场"
    },
    {
        "foursquare_id": "5789bc6e498edec74c71ce53",
        "imageurl": "https://fastly.4sqi.net/img/general/600x400/37872072_xliMuvI0wZw9pWSnmR0HnSCf5D_MwpmwihODbFJ_-ew.jpg",
        "category1": "attraction",
        "category2": "Theme Park",
        "name": "Tree House (小樹屋)"
    },
    {
        "foursquare_id": "4ffaefe8e4b05369d170d080",
        "imageurl": "",
        "category1": "attraction",
        "category2": "Theme Park",
        "name": "LYF's Production"
    },
    {
        "foursquare_id": "5e6cac04970a0b0008e78390",
        "imageurl": "https://fastly.4sqi.net/img/general/600x400/43609851_l4KO9P1nm1lTKvaEXVY5ZcTDgY3onq2zc_ScnX7pPHY.jpg",
        "category1": "attraction",
        "category2": "Theme Park",
        "name": "Jumpin Gym U.S.A. (美國冒險樂園)"
    }
]
